# r, h, Pe_g, tau
1.000000000000000000e+00,1.414213562373096422e-01,1.173161269149422452e+02,4.397264402222787055e-02
1.000000000000000000e+00,1.414213562373096422e-01,1.059365880090413611e+03,4.933251900700613007e-02
1.000000000000000000e+00,1.414213562373096422e-01,2.282729183658356305e+03,4.969023570423205388e-02
1.000000000000000000e+00,1.414213562373096422e-01,3.583280592815961541e+02,4.802664963419654015e-02
1.000000000000000000e+00,1.414213562373096422e-01,1.533827199866689028e+01,1.680087743534596639e-02
1.000000000000000000e+00,1.414213562373096422e-01,3.060924740869657398e+03,4.976898945596648638e-02
1.000000000000000000e+00,1.414213562373096422e-01,1.375640156759194781e+02,4.485979893400572627e-02
1.000000000000000000e+00,1.414213562373096422e-01,1.438292446306107664e+01,1.588595931489713078e-02
1.000000000000000000e+00,1.414213562373096422e-01,3.257584392824495723e+01,2.930184083031899325e-02
1.000000000000000000e+00,1.414213562373096422e-01,3.507121413244316699e+01,3.054434724094499606e-02
2.000000000000000000e+00,1.414213562373096422e-01,4.751592978693834652e+02,2.805457586414833449e-02
2.000000000000000000e+00,1.414213562373096422e-01,5.180622166070205822e+03,2.934042637570821732e-02
2.000000000000000000e+00,1.414213562373096422e-01,7.821966601105785344e+01,2.193775140230149953e-02
2.000000000000000000e+00,1.414213562373096422e-01,5.064374504734758375e+03,2.933737267902736603e-02
2.000000000000000000e+00,1.414213562373096422e-01,1.421303592823457393e+03,2.899080861975466411e-02
2.000000000000000000e+00,1.414213562373096422e-01,7.163150332187926850e+00,3.658814117943342843e-03
2.000000000000000000e+00,1.414213562373096422e-01,4.588849840879711905e+02,2.800564043342729237e-02
2.000000000000000000e+00,1.414213562373096422e-01,3.794658025590007310e+04,2.945554597799916047e-02
2.000000000000000000e+00,1.414213562373096422e-01,5.001241657463169395e+04,2.945994641922877050e-02
2.000000000000000000e+00,1.414213562373096422e-01,1.724795263799119880e+02,2.574442140806888421e-02
3.000000000000000000e+00,1.414213562373096422e-01,5.387770690322134760e+04,2.388118689907089975e-02
3.000000000000000000e+00,1.414213562373096422e-01,6.688987632675843997e+01,1.023714669946687063e-02
3.000000000000000000e+00,1.414213562373096422e-01,8.171721591157561306e+03,2.378832447709175110e-02
3.000000000000000000e+00,1.414213562373096422e-01,1.297714067294755114e+04,2.382886587300118639e-02
3.000000000000000000e+00,1.414213562373096422e-01,5.917579119386944058e+02,2.237705951817856725e-02
3.000000000000000000e+00,1.414213562373096422e-01,1.441032541757396939e+04,2.383572146292341210e-02
3.000000000000000000e+00,1.414213562373096422e-01,1.881477779395055040e+04,2.385025213956468854e-02
3.000000000000000000e+00,1.414213562373096422e-01,2.835177598391317224e+04,2.386624251520011453e-02
3.000000000000000000e+00,1.414213562373096422e-01,1.711524444448928261e+04,2.384553149606266631e-02
3.000000000000000000e+00,1.414213562373096422e-01,8.433384355607350358e+01,1.251952200221394078e-02
1.000000000000000000e+00,7.071067811865482111e-02,2.443932630292028136e+02,2.210668627723117244e-02
1.000000000000000000e+00,7.071067811865482111e-02,3.629346569104033620e+02,2.305169675070740248e-02
1.000000000000000000e+00,7.071067811865482111e-02,2.056473039354130492e+02,2.156157988499539033e-02
1.000000000000000000e+00,7.071067811865482111e-02,9.263364897224995786e+01,1.743822621037092666e-02
1.000000000000000000e+00,7.071067811865482111e-02,1.214431366560611241e+04,2.494177465970631030e-02
1.000000000000000000e+00,7.071067811865482111e-02,3.743388011748696590e+04,2.498111052834831383e-02
1.000000000000000000e+00,7.071067811865482111e-02,1.011081335978399842e+01,2.953854280783716705e-03
1.000000000000000000e+00,7.071067811865482111e-02,2.174117685518508836e+02,2.174762562264529603e-02
1.000000000000000000e+00,7.071067811865482111e-02,1.136685497412698282e+02,1.879538185413897819e-02
1.000000000000000000e+00,7.071067811865482111e-02,1.329377090898650593e+01,3.860220570591598854e-03
2.000000000000000000e+00,7.071067811865482111e-02,1.112827509227512195e+02,9.756547147420432595e-03
2.000000000000000000e+00,7.071067811865482111e-02,2.860723828114668140e+04,1.475251166065194054e-02
2.000000000000000000e+00,7.071067811865482111e-02,3.529472382452481156e+02,1.292925138729920237e-02
2.000000000000000000e+00,7.071067811865482111e-02,1.969439995139054372e+04,1.474145396157764375e-02
2.000000000000000000e+00,7.071067811865482111e-02,9.109783002370276961e+01,8.899119207869765277e-03
2.000000000000000000e+00,7.071067811865482111e-02,9.415172511057889437e+01,9.050982793841947857e-03
2.000000000000000000e+00,7.071067811865482111e-02,1.354591502309541617e+01,1.795823757095787966e-03
2.000000000000000000e+00,7.071067811865482111e-02,3.524987014026071961e+02,1.292707109280995942e-02
2.000000000000000000e+00,7.071067811865482111e-02,2.193282329358972220e+03,1.446120428079845574e-02
2.000000000000000000e+00,7.071067811865482111e-02,1.030604192348363881e+02,9.443778967582508801e-03
3.000000000000000000e+00,7.071067811865482111e-02,2.516826313730323818e+04,1.173220274346152732e-02
3.000000000000000000e+00,7.071067811865482111e-02,6.744220169770414941e+04,1.175343528137046817e-02
3.000000000000000000e+00,7.071067811865482111e-02,4.294331425749653874e+01,1.922304222981581663e-03
3.000000000000000000e+00,7.071067811865482111e-02,6.477561720899280772e+03,1.163429939128171782e-02
3.000000000000000000e+00,7.071067811865482111e-02,5.131116644568141055e+03,1.159963912421907266e-02
3.000000000000000000e+00,7.071067811865482111e-02,2.705372655127590420e+01,1.472417478308798554e-03
3.000000000000000000e+00,7.071067811865482111e-02,3.988769375204862445e+04,1.174470431982958113e-02
3.000000000000000000e+00,7.071067811865482111e-02,8.046750039571819002e+00,7.193892715456371790e-04
3.000000000000000000e+00,7.071067811865482111e-02,1.623192319035739729e+03,1.123700530354921658e-02
3.000000000000000000e+00,7.071067811865482111e-02,4.150462790110478863e+02,9.626348251028126954e-03
1.000000000000000000e+00,3.535533905932741056e-02,3.860595169414833890e+03,1.231684003644476465e-02
1.000000000000000000e+00,3.535533905932741056e-02,7.562617697226145630e+00,5.563767971612129356e-04
1.000000000000000000e+00,3.535533905932741056e-02,1.600412964555013968e+04,1.245581732275209338e-02
1.000000000000000000e+00,3.535533905932741056e-02,4.849024713949008856e+02,1.104175547868009068e-02
1.000000000000000000e+00,3.535533905932741056e-02,2.088295931805339569e+04,1.246613943618187295e-02
1.000000000000000000e+00,3.535533905932741056e-02,3.378898416476084094e+03,1.229072867298368517e-02
1.000000000000000000e+00,3.535533905932741056e-02,6.279137842915883994e+02,1.137387911479935225e-02
1.000000000000000000e+00,3.535533905932741056e-02,1.115427127290798026e+01,8.194679263408447900e-04
1.000000000000000000e+00,3.535533905932741056e-02,1.503959750113485279e+04,1.245298366420524196e-02
1.000000000000000000e+00,3.535533905932741056e-02,1.373058781726184350e+02,7.546496555372342492e-03
2.000000000000000000e+00,3.535533905932741056e-02,8.743570669914647908e+01,2.401532280362342776e-03
2.000000000000000000e+00,3.535533905932741056e-02,5.053508875864306447e+02,6.137324307315774816e-03
2.000000000000000000e+00,3.535533905932741056e-02,9.010212660933344750e+02,6.658853587611133530e-03
2.000000000000000000e+00,3.535533905932741056e-02,2.434983769244279017e+01,8.299888039806276605e-04
2.000000000000000000e+00,3.535533905932741056e-02,4.570823857069280166e+03,7.246039020057175664e-03
2.000000000000000000e+00,3.535533905932741056e-02,1.406945143655919424e+02,3.720876900736433488e-03
2.000000000000000000e+00,3.535533905932741056e-02,2.693490771559594918e+02,5.236008584031514451e-03
2.000000000000000000e+00,3.535533905932741056e-02,2.494743853931051092e+02,5.098927868778193977e-03
2.000000000000000000e+00,3.535533905932741056e-02,1.505567874152129207e+03,6.945773436840965015e-03
2.000000000000000000e+00,3.535533905932741056e-02,2.947606216006846935e+01,9.990366157419515881e-04
3.000000000000000000e+00,3.535533905932741056e-02,1.220721273537855723e+03,5.138312971286617022e-03
3.000000000000000000e+00,3.535533905932741056e-02,9.055875715767983536e+01,9.937354640821196693e-04
3.000000000000000000e+00,3.535533905932741056e-02,2.096770347660528569e+04,5.801268812808605194e-03
3.000000000000000000e+00,3.535533905932741056e-02,1.958869144880635531e+03,5.408540984159080495e-03
3.000000000000000000e+00,3.535533905932741056e-02,4.976160964753917426e+01,7.009953248102414672e-04
3.000000000000000000e+00,3.535533905932741056e-02,5.046189390479681833e+02,4.038371880884597705e-03
3.000000000000000000e+00,3.535533905932741056e-02,3.293850926754158763e+02,3.043219990705311410e-03
3.000000000000000000e+00,3.535533905932741056e-02,4.650103395845935302e+04,5.823129563954219934e-03
3.000000000000000000e+00,3.535533905932741056e-02,2.309625954005159088e+02,2.226055824920369214e-03
3.000000000000000000e+00,3.535533905932741056e-02,3.428871581972282729e+04,5.816739362910923125e-03
1.000000000000000000e+00,1.414213562373096422e-01,5.779993726564855479e+02,4.877663042633215845e-02
1.000000000000000000e+00,1.414213562373096422e-01,8.587130254611460032e+02,4.917655069093546799e-02
1.000000000000000000e+00,1.414213562373096422e-01,8.137822777098326910e+00,9.385270438966584680e-03
1.000000000000000000e+00,1.414213562373096422e-01,1.584993497680608954e+01,1.728138348080259651e-02
1.000000000000000000e+00,1.414213562373096422e-01,2.479039524235759018e+04,4.997147673191521672e-02
1.000000000000000000e+00,1.414213562373096422e-01,1.147040588226103353e+02,4.383539047904043418e-02
1.000000000000000000e+00,1.414213562373096422e-01,1.286367757451894795e+04,4.994503049565896663e-02
1.000000000000000000e+00,1.414213562373096422e-01,8.335540889421864108e+01,4.151772536854902301e-02
1.000000000000000000e+00,1.414213562373096422e-01,5.458489384684051402e+03,4.987045751428648144e-02
1.000000000000000000e+00,1.414213562373096422e-01,6.382650745849892701e+03,4.988921418023225390e-02
2.000000000000000000e+00,1.414213562373096422e-01,2.524580446768361071e+04,2.944637078631287888e-02
2.000000000000000000e+00,1.414213562373096422e-01,1.055859615745188194e+03,2.882564705152649773e-02
2.000000000000000000e+00,1.414213562373096422e-01,1.678637517711412784e+03,2.906429052209656000e-02
2.000000000000000000e+00,1.414213562373096422e-01,1.711888346662237481e+01,7.699791072662632088e-03
2.000000000000000000e+00,1.414213562373096422e-01,2.732713268960147161e+03,2.922151224661389407e-02
2.000000000000000000e+00,1.414213562373096422e-01,1.083936635722072594e+01,5.324612472335671712e-03
2.000000000000000000e+00,1.414213562373096422e-01,1.679257887577853035e+04,2.943257821436354171e-02
2.000000000000000000e+00,1.414213562373096422e-01,1.954811568303677632e+03,2.912176955433276940e-02
2.000000000000000000e+00,1.414213562373096422e-01,8.967675573640352127e+01,2.276921093256286180e-02
2.000000000000000000e+00,1.414213562373096422e-01,5.877027988195819489e+04,2.946200917154260038e-02
3.000000000000000000e+00,1.414213562373096422e-01,3.223394862932078831e+04,2.387004162096108273e-02
3.000000000000000000e+00,1.414213562373096422e-01,3.700518800081085828e+03,2.365596507498530371e-02
3.000000000000000000e+00,1.414213562373096422e-01,2.734607595369253431e+03,2.357045502309128987e-02
3.000000000000000000e+00,1.414213562373096422e-01,2.851760805136306089e+02,2.070606437481931072e-02
3.000000000000000000e+00,1.414213562373096422e-01,1.061039581826141330e+04,2.381348905837077021e-02
3.000000000000000000e+00,1.414213562373096422e-01,2.638549381869649005e+04,2.386389175273108745e-02
3.000000000000000000e+00,1.414213562373096422e-01,6.317199019766859419e+04,2.388362889796009220e-02
3.000000000000000000e+00,1.414213562373096422e-01,1.664246122879587347e+04,2.384404684846739425e-02
3.000000000000000000e+00,1.414213562373096422e-01,8.170260925386203965e+00,2.368071930382006050e-03
3.000000000000000000e+00,1.414213562373096422e-01,4.337154749542673380e+04,2.387716620005118917e-02
1.000000000000000000e+00,7.071067811865482111e-02,1.588877463626740428e+04,2.495549641744189071e-02
1.000000000000000000e+00,7.071067811865482111e-02,2.526797201770285028e+03,2.472015689917808276e-02
1.000000000000000000e+00,7.071067811865482111e-02,8.185117229127274186e+03,2.491361060018124074e-02
1.000000000000000000e+00,7.071067811865482111e-02,8.381780202086773102e+01,1.669746854973267261e-02
1.000000000000000000e+00,7.071067811865482111e-02,1.102366412413197416e+01,3.215456395903112160e-03
1.000000000000000000e+00,7.071067811865482111e-02,2.044383241232561659e+02,2.154124826162583453e-02
1.000000000000000000e+00,7.071067811865482111e-02,4.905741399460767752e+03,2.485586149623272845e-02
1.000000000000000000e+00,7.071067811865482111e-02,3.784043331318039805e+01,1.001090742709349370e-02
1.000000000000000000e+00,7.071067811865482111e-02,3.806822663420210517e+01,1.005935107133270300e-02
1.000000000000000000e+00,7.071067811865482111e-02,2.131900331214364286e+01,6.055452674505561010e-03
2.000000000000000000e+00,7.071067811865482111e-02,2.999780262337716863e+01,3.569338669627154532e-03
2.000000000000000000e+00,7.071067811865482111e-02,1.124698185662024116e+04,1.471483325145276841e-02
2.000000000000000000e+00,7.071067811865482111e-02,1.365223860944696455e+01,1.809432982711809204e-03
2.000000000000000000e+00,7.071067811865482111e-02,7.387840040148570608e+01,7.673946655472688345e-03
2.000000000000000000e+00,7.071067811865482111e-02,7.895422024707533637e+03,1.468853682240802566e-02
2.000000000000000000e+00,7.071067811865482111e-02,7.001575384386907899e+03,1.467728632729951160e-02
2.000000000000000000e+00,7.071067811865482111e-02,4.337507454855184915e+04,1.476083613989613054e-02
2.000000000000000000e+00,7.071067811865482111e-02,7.351985352209948360e+03,1.468202170574803289e-02
2.000000000000000000e+00,7.071067811865482111e-02,1.561725739790893286e+01,2.056560014052726676e-03
2.000000000000000000e+00,7.071067811865482111e-02,1.855608579483271825e+01,2.408585329894584286e-03
3.000000000000000000e+00,7.071067811865482111e-02,2.296486671230217326e+03,1.139305365956041170e-02
3.000000000000000000e+00,7.071067811865482111e-02,1.678555137931159152e+03,1.125460308880231290e-02
3.000000000000000000e+00,7.071067811865482111e-02,1.658435533517419572e+03,1.124834499629246386e-02
3.000000000000000000e+00,7.071067811865482111e-02,9.213159268704926319e+01,3.626633061855350903e-03
3.000000000000000000e+00,7.071067811865482111e-02,9.783572599588976573e+02,1.088284276253430674e-02
3.000000000000000000e+00,7.071067811865482111e-02,2.663147185947441358e+02,8.318776525986946654e-03
3.000000000000000000e+00,7.071067811865482111e-02,1.959466502626634247e+04,1.172256350763557949e-02
3.000000000000000000e+00,7.071067811865482111e-02,2.003030591457259675e+02,7.082309510128844722e-03
3.000000000000000000e+00,7.071067811865482111e-02,1.136890220657939352e+02,4.396840994428530790e-03
3.000000000000000000e+00,7.071067811865482111e-02,1.995747035323862065e+03,1.133646085650614685e-02
1.000000000000000000e+00,3.535533905932741056e-02,8.763722988848775231e+02,1.169314334554567847e-02
1.000000000000000000e+00,3.535533905932741056e-02,1.412317378586523955e+04,1.244993283115202430e-02
1.000000000000000000e+00,3.535533905932741056e-02,9.886182485047346091e+00,7.267077032445674444e-04
1.000000000000000000e+00,3.535533905932741056e-02,3.868279811586716824e+04,1.248172033395151918e-02
1.000000000000000000e+00,3.535533905932741056e-02,5.900715652171718830e+03,1.238016596070572357e-02
1.000000000000000000e+00,3.535533905932741056e-02,5.588514105147536526e+01,3.871181377109129094e-03
1.000000000000000000e+00,3.535533905932741056e-02,3.703450219080098123e+02,1.059073245005543069e-02
1.000000000000000000e+00,3.535533905932741056e-02,7.744399972098194667e+03,1.240869449856906760e-02
1.000000000000000000e+00,3.535533905932741056e-02,6.789281332911556092e+03,1.239584960751165255e-02
1.000000000000000000e+00,3.535533905932741056e-02,4.179985351070700403e+02,1.080836067151849829e-02
2.000000000000000000e+00,3.535533905932741056e-02,5.925631319159128907e+01,1.803136363486755990e-03
2.000000000000000000e+00,3.535533905932741056e-02,2.092065063881624155e+03,7.069646019502884293e-03
2.000000000000000000e+00,3.535533905932741056e-02,1.438606822967179141e+04,7.349706321888670353e-03
2.000000000000000000e+00,3.535533905932741056e-02,1.850552340876396045e+02,4.503638977525314946e-03
2.000000000000000000e+00,3.535533905932741056e-02,6.742601631593490765e+02,6.428778773931027347e-03
2.000000000000000000e+00,3.535533905932741056e-02,1.667441412764735631e+01,5.673904481713677207e-04
2.000000000000000000e+00,3.535533905932741056e-02,1.138612357882101520e+02,2.990332757656934213e-03
2.000000000000000000e+00,3.535533905932741056e-02,5.744535967155947583e+04,7.386254028104390426e-03
2.000000000000000000e+00,3.535533905932741056e-02,1.440090682553973238e+02,3.817272842574208781e-03
2.000000000000000000e+00,3.535533905932741056e-02,1.950251313639844284e+02,4.616073699631939239e-03
3.000000000000000000e+00,3.535533905932741056e-02,1.208412242273620677e+03,5.130898173192328590e-03
3.000000000000000000e+00,3.535533905932741056e-02,3.462262984521520792e+01,5.797639931535440629e-04
3.000000000000000000e+00,3.535533905932741056e-02,1.320389167925815741e+02,1.342564075135031527e-03
3.000000000000000000e+00,3.535533905932741056e-02,1.586608110610616677e+04,5.788451529150522891e-03
3.000000000000000000e+00,3.535533905932741056e-02,1.777032325760387039e+03,5.363337656237835045e-03
3.000000000000000000e+00,3.535533905932741056e-02,1.810771944387059921e+04,5.794974395492574065e-03
3.000000000000000000e+00,3.535533905932741056e-02,1.169403268883854480e+03,5.106324067302221714e-03
3.000000000000000000e+00,3.535533905932741056e-02,1.038075267184323138e+02,1.100436863892383403e-03
3.000000000000000000e+00,3.535533905932741056e-02,9.252105283857273434e+02,4.902716237470892448e-03
3.000000000000000000e+00,3.535533905932741056e-02,5.456149689741957263e+04,5.825779357787919631e-03
1.000000000000000000e+00,1.414213562373096422e-01,4.347560890498882458e+01,3.394970417896117643e-02
1.000000000000000000e+00,1.414213562373096422e-01,1.658353853311924127e+02,4.573609199252482577e-02
1.000000000000000000e+00,1.414213562373096422e-01,3.003262441980959352e+02,4.764553807173661781e-02
1.000000000000000000e+00,1.414213562373096422e-01,3.091851327237831356e+03,4.977129997404949879e-02
1.000000000000000000e+00,1.414213562373096422e-01,3.793685362917985771e+01,3.183085943643272631e-02
1.000000000000000000e+00,1.414213562373096422e-01,5.575226667513584289e+03,4.987317047740737891e-02
1.000000000000000000e+00,1.414213562373096422e-01,1.190373203161941689e+02,4.405979383693071905e-02
1.000000000000000000e+00,1.414213562373096422e-01,9.230328729616790895e+01,4.233952518378653745e-02
1.000000000000000000e+00,1.414213562373096422e-01,1.841009428211640397e+01,1.958366190529330086e-02
1.000000000000000000e+00,1.414213562373096422e-01,2.382586693863212986e+03,4.970321861560910576e-02
2.000000000000000000e+00,1.414213562373096422e-01,9.039895178166798928e+01,2.281549160535423920e-02
2.000000000000000000e+00,1.414213562373096422e-01,1.031613339862000167e+01,5.102772994660754145e-03
2.000000000000000000e+00,1.414213562373096422e-01,5.304310609782548909e+02,2.819890526357117511e-02
2.000000000000000000e+00,1.414213562373096422e-01,1.617676331594506155e+04,2.943101041629054768e-02
2.000000000000000000e+00,1.414213562373096422e-01,2.813186859421731424e+04,2.944918238773159419e-02
2.000000000000000000e+00,1.414213562373096422e-01,2.426878922245626313e+01,1.016965302818492387e-02
2.000000000000000000e+00,1.414213562373096422e-01,1.835084360381071019e+04,2.943607534614350874e-02
2.000000000000000000e+00,1.414213562373096422e-01,2.255037621396047325e+04,2.944309482645005027e-02
2.000000000000000000e+00,1.414213562373096422e-01,2.683169561376038104e+01,1.107218328647458644e-02
2.000000000000000000e+00,1.414213562373096422e-01,5.638547901405036828e+04,2.946151102791492310e-02
3.000000000000000000e+00,1.414213562373096422e-01,1.108493650276665221e+03,2.308876781351976853e-02
3.000000000000000000e+00,1.414213562373096422e-01,5.334962183229357834e+03,2.373009050411822168e-02
3.000000000000000000e+00,1.414213562373096422e-01,2.941219521379973116e+02,2.080562097002335367e-02
3.000000000000000000e+00,1.414213562373096422e-01,5.746098008016402048e+01,8.914065654166070801e-03
3.000000000000000000e+00,1.414213562373096422e-01,4.441334552700775617e+01,7.040713486809754493e-03
3.000000000000000000e+00,1.414213562373096422e-01,1.325856862442042984e+04,2.383032902547538995e-02
3.000000000000000000e+00,1.414213562373096422e-01,1.560589300702699944e+01,3.208214051717209105e-03
3.000000000000000000e+00,1.414213562373096422e-01,2.096120233096000084e+04,2.385512001216592154e-02
3.000000000000000000e+00,1.414213562373096422e-01,1.032703783663870354e+03,2.302917043253118953e-02
3.000000000000000000e+00,1.414213562373096422e-01,6.689415386913367456e+02,2.255378517074296471e-02
1.000000000000000000e+00,7.071067811865482111e-02,4.630780270146350631e+03,2.484730284547910159e-02
1.000000000000000000e+00,7.071067811865482111e-02,1.099800458091194969e+03,2.435705913902235648e-02
1.000000000000000000e+00,7.071067811865482111e-02,2.720356420665202535e+01,7.560511948044480388e-03
1.000000000000000000e+00,7.071067811865482111e-02,2.379037726708200353e+04,2.497027777214712307e-02
1.000000000000000000e+00,7.071067811865482111e-02,3.586391879257435278e+01,9.583369741001792480e-03
1.000000000000000000e+00,7.071067811865482111e-02,2.004449292279094053e+01,5.716938695944738871e-03
1.000000000000000000e+00,7.071067811865482111e-02,4.173875725636702327e+01,1.081626499878191733e-02
1.000000000000000000e+00,7.071067811865482111e-02,4.206032768581111441e+02,2.331882737396679187e-02
1.000000000000000000e+00,7.071067811865482111e-02,5.197353262657298956e+02,2.363948687221663000e-02
1.000000000000000000e+00,7.071067811865482111e-02,5.523193327943621989e+04,2.498719750761163594e-02
2.000000000000000000e+00,7.071067811865482111e-02,6.890552545377145179e+02,1.379665051685659109e-02
2.000000000000000000e+00,7.071067811865482111e-02,9.031914319840562939e+02,1.402256100006698918e-02
2.000000000000000000e+00,7.071067811865482111e-02,1.023032518463206912e+02,9.412820123129566133e-03
2.000000000000000000e+00,7.071067811865482111e-02,5.395643253321661177e+03,1.464775148079811885e-02
2.000000000000000000e+00,7.071067811865482111e-02,6.160780191676244613e+02,1.368528259249171715e-02
2.000000000000000000e+00,7.071067811865482111e-02,1.771875133423347143e+04,1.473749899475295180e-02
2.000000000000000000e+00,7.071067811865482111e-02,2.731110376534093575e+03,1.452282090291268438e-02
2.000000000000000000e+00,7.071067811865482111e-02,2.748610471004029776e+01,3.338422858775519624e-03
2.000000000000000000e+00,7.071067811865482111e-02,7.503784581834717748e+00,9.930532224519349454e-04
2.000000000000000000e+00,7.071067811865482111e-02,1.327013872907421330e+02,1.041725422632464385e-02
3.000000000000000000e+00,7.071067811865482111e-02,1.184064082826912454e+04,1.169404408464202322e-02
3.000000000000000000e+00,7.071067811865482111e-02,4.061503060323599357e+02,9.576804321419010724e-03
3.000000000000000000e+00,7.071067811865482111e-02,2.331386042165949846e+02,7.781193849977564511e-03
3.000000000000000000e+00,7.071067811865482111e-02,9.707437525205968143e+00,8.198963609979780095e-04
3.000000000000000000e+00,7.071067811865482111e-02,2.418085426998741241e+04,1.173081917885761619e-02
3.000000000000000000e+00,7.071067811865482111e-02,1.780701432163399431e+02,6.497451538766352286e-03
3.000000000000000000e+00,7.071067811865482111e-02,4.145329614431193477e+03,1.155994191226854956e-02
3.000000000000000000e+00,7.071067811865482111e-02,1.094463173807953815e+01,8.895331219894920443e-04
3.000000000000000000e+00,7.071067811865482111e-02,2.266240659452032702e+01,1.348969746195887408e-03
3.000000000000000000e+00,7.071067811865482111e-02,3.885475774209877500e+02,9.471608223799252851e-03
1.000000000000000000e+00,3.535533905932741056e-02,1.258671262033661696e+04,1.244382119704472330e-02
1.000000000000000000e+00,3.535533905932741056e-02,3.583889710026195985e+01,2.571742515831287532e-03
1.000000000000000000e+00,3.535533905932741056e-02,4.133193559586539050e+04,1.248289201990987127e-02
1.000000000000000000e+00,3.535533905932741056e-02,5.333186590325432519e+01,3.713587227413616548e-03
1.000000000000000000e+00,3.535533905932741056e-02,3.671501898085238480e+01,2.631294482082984811e-03
1.000000000000000000e+00,3.535533905932741056e-02,1.026855736979362455e+01,7.546943773448142306e-04
1.000000000000000000e+00,3.535533905932741056e-02,1.599159016590747306e+01,1.171663768161592799e-03
1.000000000000000000e+00,3.535533905932741056e-02,1.546378625814912311e+03,1.204273366523327636e-02
1.000000000000000000e+00,3.535533905932741056e-02,8.360388155139331090e+00,6.149059045915408967e-04
1.000000000000000000e+00,3.535533905932741056e-02,1.675175470261709521e+01,1.226729373161448110e-03
2.000000000000000000e+00,3.535533905932741056e-02,1.367452140908595311e+03,6.901723009504015863e-03
2.000000000000000000e+00,3.535533905932741056e-02,3.302137965881328273e+04,7.377205190326445103e-03
2.000000000000000000e+00,3.535533905932741056e-02,1.505370312055298143e+02,3.980453112463222878e-03
2.000000000000000000e+00,3.535533905932741056e-02,3.041031403413498992e+03,7.170584500369801828e-03
2.000000000000000000e+00,3.535533905932741056e-02,6.238537591429409076e+03,7.286474659819255906e-03
2.000000000000000000e+00,3.535533905932741056e-02,3.890204240312043839e+04,7.380421132224460404e-03
2.000000000000000000e+00,3.535533905932741056e-02,1.133184444343132600e+04,7.336610431018217998e-03
2.000000000000000000e+00,3.535533905932741056e-02,1.315211230303034972e+04,7.345144904701092319e-03
2.000000000000000000e+00,3.535533905932741056e-02,2.770709241898750042e+04,7.373126815825672455e-03
2.000000000000000000e+00,3.535533905932741056e-02,1.398618763294527071e+03,6.912395315943838797e-03
3.000000000000000000e+00,3.535533905932741056e-02,5.031322014835380969e+02,4.032534340426283462e-03
3.000000000000000000e+00,3.535533905932741056e-02,1.723141737338384701e+03,5.348062578356764171e-03
3.000000000000000000e+00,3.535533905932741056e-02,1.999992753655439446e+04,5.799340694403572888e-03
3.000000000000000000e+00,3.535533905932741056e-02,1.258486570065328124e+03,5.160121316718196960e-03
3.000000000000000000e+00,3.535533905932741056e-02,6.327535222553723315e+02,4.433233807818640071e-03
3.000000000000000000e+00,3.535533905932741056e-02,1.964062360894509993e+02,1.919138822892080785e-03
3.000000000000000000e+00,3.535533905932741056e-02,6.196279424188545448e+01,7.852195199262172916e-04
3.000000000000000000e+00,3.535533905932741056e-02,1.272149722536568697e+04,5.775417793636172976e-03
3.000000000000000000e+00,3.535533905932741056e-02,4.623013325283648555e+03,5.659658248961558537e-03
3.000000000000000000e+00,3.535533905932741056e-02,3.223574560513730489e+02,2.989399132709380600e-03
1.000000000000000000e+00,1.414213562373096422e-01,3.490216013308723859e+02,4.797403178824004299e-02
1.000000000000000000e+00,1.414213562373096422e-01,1.742001766577964759e+02,4.594083777307915450e-02
1.000000000000000000e+00,1.414213562373096422e-01,2.740847422469816593e+03,4.974201186516060552e-02
1.000000000000000000e+00,1.414213562373096422e-01,8.248921305678517456e+03,4.991427889366737564e-02
1.000000000000000000e+00,1.414213562373096422e-01,1.121213615350532855e+01,1.269111233466422954e-02
1.000000000000000000e+00,1.414213562373096422e-01,2.914523583345264157e+01,2.738683847409175212e-02
1.000000000000000000e+00,1.414213562373096422e-01,2.493885594489289019e+02,4.716463840499249965e-02
1.000000000000000000e+00,1.414213562373096422e-01,1.057975709403711153e+04,4.993316486585833158e-02
1.000000000000000000e+00,1.414213562373096422e-01,9.900858360941914071e+00,1.130397116683758488e-02
1.000000000000000000e+00,1.414213562373096422e-01,1.383124301776602442e+04,4.994887580729208409e-02
2.000000000000000000e+00,1.414213562373096422e-01,6.731811429159309910e+02,2.846412677239448449e-02
2.000000000000000000e+00,1.414213562373096422e-01,5.270918388777719343e+01,1.901620478905318226e-02
2.000000000000000000e+00,1.414213562373096422e-01,1.839882053006168405e+02,2.596142540536985552e-02
2.000000000000000000e+00,1.414213562373096422e-01,2.701912218137795563e+01,1.113916394242698941e-02
2.000000000000000000e+00,1.414213562373096422e-01,2.760042200382497413e+02,2.707743851699891818e-02
2.000000000000000000e+00,1.414213562373096422e-01,5.490147237970457354e+04,2.946117870973389771e-02
2.000000000000000000e+00,1.414213562373096422e-01,1.823900478494817889e+03,2.909667884673024230e-02
2.000000000000000000e+00,1.414213562373096422e-01,8.691764206836191988e+02,2.868846707673108204e-02
2.000000000000000000e+00,1.414213562373096422e-01,1.297665815517070951e+04,2.942047108504141847e-02
2.000000000000000000e+00,1.414213562373096422e-01,2.528276415772797137e+01,1.052404975057573411e-02
3.000000000000000000e+00,1.414213562373096422e-01,6.322494188836168178e+04,2.388364072346231895e-02
3.000000000000000000e+00,1.414213562373096422e-01,4.134581931167699804e+04,2.387615593571697226e-02
3.000000000000000000e+00,1.414213562373096422e-01,7.671886538167591141e+01,1.155913863515450717e-02
3.000000000000000000e+00,1.414213562373096422e-01,1.177293634878014572e+01,2.800687889254269234e-03
3.000000000000000000e+00,1.414213562373096422e-01,8.589934849220826436e+02,2.285268125649016907e-02
3.000000000000000000e+00,1.414213562373096422e-01,1.142398673778759957e+02,1.550938339115952476e-02
3.000000000000000000e+00,1.414213562373096422e-01,2.805891303536976125e+02,2.065246778324000138e-02
3.000000000000000000e+00,1.414213562373096422e-01,1.739268177324869248e+04,2.384636510540672286e-02
3.000000000000000000e+00,1.414213562373096422e-01,3.299461813634237478e+04,2.387068123100742623e-02
3.000000000000000000e+00,1.414213562373096422e-01,9.158707646190054064e+00,2.497237428854275250e-03
1.000000000000000000e+00,7.071067811865482111e-02,1.427962990629780222e+02,2.005020332055717364e-02
1.000000000000000000e+00,7.071067811865482111e-02,1.106467287956308212e+02,1.862934038922574309e-02
1.000000000000000000e+00,7.071067811865482111e-02,3.118540647357041598e+04,2.497732579514690132e-02
1.000000000000000000e+00,7.071067811865482111e-02,2.680278326111522915e+02,2.236181603922387726e-02
1.000000000000000000e+00,7.071067811865482111e-02,1.334701537408901640e+04,2.494702132025312935e-02
1.000000000000000000e+00,7.071067811865482111e-02,2.731266197845718125e+04,2.497411080621608770e-02
1.000000000000000000e+00,7.071067811865482111e-02,2.642963392926870711e+03,2.473245675763148521e-02
1.000000000000000000e+00,7.071067811865482111e-02,2.459493859523972787e+03,2.471249934092488790e-02
1.000000000000000000e+00,7.071067811865482111e-02,1.363633365781847488e+03,2.448145378323919943e-02
1.000000000000000000e+00,7.071067811865482111e-02,1.443379992185545916e+03,2.451010349891931395e-02
2.000000000000000000e+00,7.071067811865482111e-02,1.365561397461205615e+03,1.427328824021192183e-02
2.000000000000000000e+00,7.071067811865482111e-02,3.334723332604207258e+02,1.282961916488029909e-02
2.000000000000000000e+00,7.071067811865482111e-02,5.667547482178165410e+03,1.465392397752366717e-02
2.000000000000000000e+00,7.071067811865482111e-02,8.732346316238543693e+01,8.694887303803027975e-03
2.000000000000000000e+00,7.071067811865482111e-02,2.385341665001171714e+04,1.474764114353299162e-02
2.000000000000000000e+00,7.071067811865482111e-02,1.519959368420410829e+04,1.473096706961713603e-02
2.000000000000000000e+00,7.071067811865482111e-02,1.285472884937409610e+01,1.706810870342285015e-03
2.000000000000000000e+00,7.071067811865482111e-02,3.686214900360319007e+04,1.475798640815702278e-02
2.000000000000000000e+00,7.071067811865482111e-02,4.932595168380944415e+03,1.463568150090559586e-02
2.000000000000000000e+00,7.071067811865482111e-02,1.793812244291896008e+01,2.336452231501991335e-03
3.000000000000000000e+00,7.071067811865482111e-02,1.576344193608637761e+04,1.171198158048215865e-02
3.000000000000000000e+00,7.071067811865482111e-02,5.706709184802826712e+03,1.161646195046331376e-02
3.000000000000000000e+00,7.071067811865482111e-02,6.140965896089008311e+03,1.162706251204530944e-02
3.000000000000000000e+00,7.071067811865482111e-02,3.781624700772378856e+04,1.174353365794518142e-02
3.000000000000000000e+00,7.071067811865482111e-02,5.850827106259352206e+01,2.429877553184393683e-03
3.000000000000000000e+00,7.071067811865482111e-02,2.827451787402052560e+03,1.146343008810331125e-02
3.000000000000000000e+00,7.071067811865482111e-02,7.426041013542858060e+00,6.802427010850162778e-04
3.000000000000000000e+00,7.071067811865482111e-02,2.445911799841195534e+04,1.173122041355060055e-02
3.000000000000000000e+00,7.071067811865482111e-02,2.252603273596966392e+04,1.172822818135112015e-02
3.000000000000000000e+00,7.071067811865482111e-02,1.435572723530249561e+02,5.426230749896647151e-03
1.000000000000000000e+00,3.535533905932741056e-02,7.997899984975531140e+01,5.230551496196450198e-03
1.000000000000000000e+00,3.535533905932741056e-02,1.019291563677868908e+03,1.180627628932617336e-02
1.000000000000000000e+00,3.535533905932741056e-02,1.446070774328092909e+02,7.761567836829467298e-03
1.000000000000000000e+00,3.535533905932741056e-02,3.075948424475942602e+02,1.020164789534962028e-02
1.000000000000000000e+00,3.535533905932741056e-02,3.271726347876238378e+03,1.228387341407493824e-02
1.000000000000000000e+00,3.535533905932741056e-02,1.135423034570516938e+04,1.243772309398854733e-02
1.000000000000000000e+00,3.535533905932741056e-02,1.264308182648833963e+03,1.194071650925171771e-02
1.000000000000000000e+00,3.535533905932741056e-02,6.796729233673598173e+03,1.239596362575757019e-02
1.000000000000000000e+00,3.535533905932741056e-02,1.797212389088026157e+03,1.210655363563347027e-02
1.000000000000000000e+00,3.535533905932741056e-02,8.261685791668066159e+00,6.076670501874788417e-04
2.000000000000000000e+00,3.535533905932741056e-02,1.695364212151837273e+04,7.357075519488318928e-03
2.000000000000000000e+00,3.535533905932741056e-02,1.039210350570562191e+01,3.485423228617910924e-04
2.000000000000000000e+00,3.535533905932741056e-02,2.813992350505199624e+01,9.556166825884939266e-04
2.000000000000000000e+00,3.535533905932741056e-02,4.597160157222466523e+02,6.026181305577077776e-03
2.000000000000000000e+00,3.535533905932741056e-02,4.790480874694174418e+03,7.252958031007386216e-03
2.000000000000000000e+00,3.535533905932741056e-02,2.975330133689411838e+01,1.007982987038661456e-03
2.000000000000000000e+00,3.535533905932741056e-02,9.907561717339093548e+02,6.722402238732009573e-03
2.000000000000000000e+00,3.535533905932741056e-02,4.577112649873789633e+04,7.383132347237511897e-03
2.000000000000000000e+00,3.535533905932741056e-02,1.370872520493342961e+01,4.642104756117140774e-04
2.000000000000000000e+00,3.535533905932741056e-02,4.870432430132686363e+02,6.094951870918570262e-03
3.000000000000000000e+00,3.535533905932741056e-02,2.539449708543612587e+02,2.426293045214550793e-03
3.000000000000000000e+00,3.535533905932741056e-02,2.590285148516679328e+03,5.515447476363514318e-03
3.000000000000000000e+00,3.535533905932741056e-02,1.795325421962206462e+02,1.767677110235672420e-03
3.000000000000000000e+00,3.535533905932741056e-02,8.526379348835088194e+02,4.818267793431934079e-03
3.000000000000000000e+00,3.535533905932741056e-02,5.103895861557976588e+01,7.100159062179588936e-04
3.000000000000000000e+00,3.535533905932741056e-02,3.600272909114219715e+02,3.266253258972212810e-03
3.000000000000000000e+00,3.535533905932741056e-02,1.282029511373331054e+01,2.835943465264501896e-04
3.000000000000000000e+00,3.535533905932741056e-02,4.904993125418003785e+01,6.959262181852443174e-04
3.000000000000000000e+00,3.535533905932741056e-02,1.942726706487939964e+03,5.404877779520998737e-03
3.000000000000000000e+00,3.535533905932741056e-02,1.008680147127054383e+01,2.319288267685198901e-04
1.000000000000000000e+00,1.414213562373096422e-01,8.247078674242144416e+02,4.914259727142286649e-02
1.000000000000000000e+00,1.414213562373096422e-01,4.497151194381545065e+04,4.998427636917102124e-02
1.000000000000000000e+00,1.414213562373096422e-01,4.120533117345532048e+01,3.313490283323138746e-02
1.000000000000000000e+00,1.414213562373096422e-01,5.030915713382712084e+01,3.602613500999195251e-02
1.000000000000000000e+00,1.414213562373096422e-01,5.292583381219579053e+01,3.669585083601611952e-02
1.000000000000000000e+00,1.414213562373096422e-01,6.346137975299670507e+04,4.998885820827918963e-02
1.000000000000000000e+00,1.414213562373096422e-01,3.064590694678170166e+02,4.769265505713524839e-02
1.000000000000000000e+00,1.414213562373096422e-01,2.913432143739018443e+02,4.757294221652202948e-02
1.000000000000000000e+00,1.414213562373096422e-01,1.418573664805431065e+02,4.501536860017212038e-02
1.000000000000000000e+00,1.414213562373096422e-01,2.819239346273575211e+04,4.997491852619084102e-02
2.000000000000000000e+00,1.414213562373096422e-01,5.163656127193617067e+02,2.816503416964789841e-02
2.000000000000000000e+00,1.414213562373096422e-01,2.855896662796152441e+02,2.715426438168558679e-02
2.000000000000000000e+00,1.414213562373096422e-01,4.487194594712629936e+01,1.748806936754709190e-02
2.000000000000000000e+00,1.414213562373096422e-01,1.124364290608692681e+04,2.941226135665434005e-02
2.000000000000000000e+00,1.414213562373096422e-01,7.077474538919195979e+00,3.617027430495094956e-03
2.000000000000000000e+00,1.414213562373096422e-01,3.613600103775605021e+03,2.928279533852960748e-02
2.000000000000000000e+00,1.414213562373096422e-01,2.294878279175697244e+01,9.712199076482644355e-03
2.000000000000000000e+00,1.414213562373096422e-01,2.966901174548266340e+01,1.210499989937254689e-02
2.000000000000000000e+00,1.414213562373096422e-01,7.502620893794925223e+02,2.856609978696919225e-02
2.000000000000000000e+00,1.414213562373096422e-01,8.972721094968379475e+03,2.939671047880802746e-02
3.000000000000000000e+00,1.414213562373096422e-01,3.070745315208375177e+04,2.386866236826847357e-02
3.000000000000000000e+00,1.414213562373096422e-01,1.542060948524029118e+04,2.383978820857245509e-02
3.000000000000000000e+00,1.414213562373096422e-01,1.570727871743517312e+02,1.794365046800484170e-02
3.000000000000000000e+00,1.414213562373096422e-01,2.261030369935238866e+02,1.984162655700217465e-02
3.000000000000000000e+00,1.414213562373096422e-01,2.872798977760060524e+01,4.814231810779542008e-03
3.000000000000000000e+00,1.414213562373096422e-01,2.375852710485984289e+02,2.004487201024315879e-02
3.000000000000000000e+00,1.414213562373096422e-01,6.273282211326368696e+01,9.658673578228275589e-03
3.000000000000000000e+00,1.414213562373096422e-01,8.039313654750960268e+03,2.378652100433498173e-02
3.000000000000000000e+00,1.414213562373096422e-01,4.317548502466766513e+04,2.387707253834237334e-02
3.000000000000000000e+00,1.414213562373096422e-01,1.122521814338783088e+03,2.309891268009425097e-02
1.000000000000000000e+00,7.071067811865482111e-02,9.729639965976319971e+00,2.844260263122159842e-03
1.000000000000000000e+00,7.071067811865482111e-02,6.923653877639011398e+02,2.397870871827286268e-02
1.000000000000000000e+00,7.071067811865482111e-02,5.197583131133408187e+02,2.363954705769910625e-02
1.000000000000000000e+00,7.071067811865482111e-02,2.120502134722820742e+01,6.025350463168850992e-03
1.000000000000000000e+00,7.071067811865482111e-02,1.389921249229624118e+04,2.494912625087052777e-02
1.000000000000000000e+00,7.071067811865482111e-02,5.438705449792673789e+03,2.486998610138456065e-02
1.000000000000000000e+00,7.071067811865482111e-02,1.975441190456726304e+02,2.142055486924217614e-02
1.000000000000000000e+00,7.071067811865482111e-02,3.250336483046558556e+01,8.826979860157419672e-03
1.000000000000000000e+00,7.071067811865482111e-02,9.806725748282800851e+03,2.492789567443978380e-02
1.000000000000000000e+00,7.071067811865482111e-02,6.748968982250583394e+03,2.489522732508135661e-02
2.000000000000000000e+00,7.071067811865482111e-02,1.053510015304861902e+01,1.401973265436076699e-03
2.000000000000000000e+00,7.071067811865482111e-02,5.065143561960687657e+04,1.476315349279086475e-02
2.000000000000000000e+00,7.071067811865482111e-02,2.399708086630352852e+02,1.215091514011513822e-02
2.000000000000000000e+00,7.071067811865482111e-02,3.396226770371295424e+04,1.475636618514485944e-02
2.000000000000000000e+00,7.071067811865482111e-02,1.209683226151939017e+01,1.608182582731495537e-03
2.000000000000000000e+00,7.071067811865482111e-02,1.057832359966778313e+01,1.407728583696213559e-03
2.000000000000000000e+00,7.071067811865482111e-02,7.376645979058332969e+00,9.757265341309498668e-04
2.000000000000000000e+00,7.071067811865482111e-02,8.510823842577014631e+00,1.129890718710038463e-03
2.000000000000000000e+00,7.071067811865482111e-02,1.122111878809845997e+01,1.493011539149321143e-03
2.000000000000000000e+00,7.071067811865482111e-02,7.596271914937988186e+03,1.468506550818952927e-02
3.000000000000000000e+00,7.071067811865482111e-02,3.310251069657263724e+04,1.174032332239596972e-02
3.000000000000000000e+00,7.071067811865482111e-02,1.121474431033001383e+04,1.169001984998729524e-02
3.000000000000000000e+00,7.071067811865482111e-02,3.188445584234719718e+03,1.149783412339260014e-02
3.000000000000000000e+00,7.071067811865482111e-02,1.976875546828139704e+04,1.172294694395434149e-02
3.000000000000000000e+00,7.071067811865482111e-02,3.729715480076357926e+04,1.174321989784329889e-02
3.000000000000000000e+00,7.071067811865482111e-02,6.032114770299212250e+04,1.175194344171474892e-02
3.000000000000000000e+00,7.071067811865482111e-02,1.204445626050128837e+01,9.473200617613929597e-04
3.000000000000000000e+00,7.071067811865482111e-02,7.752030704303640050e+03,1.165599691163190198e-02
3.000000000000000000e+00,7.071067811865482111e-02,1.208491631299876190e+03,1.105322873120438004e-02
3.000000000000000000e+00,7.071067811865482111e-02,1.289210188207614038e+01,9.892264291982179325e-04
1.000000000000000000e+00,3.535533905932741056e-02,3.149043991529015329e+02,1.025490039192121505e-02
1.000000000000000000e+00,3.535533905932741056e-02,5.655864382341629243e+04,1.248749790603775715e-02
1.000000000000000000e+00,3.535533905932741056e-02,5.785352739696613753e+02,1.127776374942999864e-02
1.000000000000000000e+00,3.535533905932741056e-02,3.695086568427212370e+01,2.647286822595344702e-03
1.000000000000000000e+00,3.535533905932741056e-02,6.395198519760353520e+03,1.238943159317925334e-02
1.000000000000000000e+00,3.535533905932741056e-02,1.687886717104192576e+04,1.245810700355250676e-02
1.000000000000000000e+00,3.535533905932741056e-02,1.451408933606110097e+01,1.064401046507108253e-03
1.000000000000000000e+00,3.535533905932741056e-02,3.410475322344209559e+01,2.453213710344711966e-03
1.000000000000000000e+00,3.535533905932741056e-02,2.551120396994561190e+02,9.731275860814472822e-03
1.000000000000000000e+00,3.535533905932741056e-02,3.366408068037870635e+03,1.228995214632056833e-02
2.000000000000000000e+00,3.535533905932741056e-02,9.283745880898928590e+03,7.323027772354539881e-03
2.000000000000000000e+00,3.535533905932741056e-02,1.057082236611243076e+01,3.547705504322869554e-04
2.000000000000000000e+00,3.535533905932741056e-02,1.193945103268744106e+03,6.832566879457463438e-03
2.000000000000000000e+00,3.535533905932741056e-02,1.265408443812944824e+04,7.343052901989390382e-03
2.000000000000000000e+00,3.535533905932741056e-02,1.808465018354655029e+01,6.162245961552505593e-04
2.000000000000000000e+00,3.535533905932741056e-02,3.169210298222894195e+01,1.069904952809972842e-03
2.000000000000000000e+00,3.535533905932741056e-02,1.202581587307947615e+02,3.147101127913586645e-03
2.000000000000000000e+00,3.535533905932741056e-02,7.675011366302462193e+03,7.307308116471831518e-03
2.000000000000000000e+00,3.535533905932741056e-02,3.686940910412843664e+01,1.229119830830344281e-03
2.000000000000000000e+00,3.535533905932741056e-02,1.415556329870258423e+03,6.918005156543994422e-03
3.000000000000000000e+00,3.535533905932741056e-02,4.199224735616985527e+03,5.641209936987006540e-03
3.000000000000000000e+00,3.535533905932741056e-02,3.500844760221657452e+03,5.600966267305432754e-03
3.000000000000000000e+00,3.535533905932741056e-02,3.800486507826760771e+02,3.400807054992827181e-03
3.000000000000000000e+00,3.535533905932741056e-02,8.205178383394261346e+02,4.775790630199183012e-03
3.000000000000000000e+00,3.535533905932741056e-02,1.522995316383374487e+01,3.267796263863826192e-04
3.000000000000000000e+00,3.535533905932741056e-02,4.136866181825849708e+03,5.638173694887255172e-03
3.000000000000000000e+00,3.535533905932741056e-02,1.062760945230904674e+01,2.423255588486714356e-04
3.000000000000000000e+00,3.535533905932741056e-02,1.747601005574761501e+01,3.646582697961365128e-04
3.000000000000000000e+00,3.535533905932741056e-02,1.048319696503353242e+02,1.108915911682682070e-03
3.000000000000000000e+00,3.535533905932741056e-02,1.325283609708409358e+02,1.346877636297558493e-03
1.000000000000000000e+00,1.414213562373096422e-01,1.663482834698730221e+04,4.995749206475749715e-02
1.000000000000000000e+00,1.414213562373096422e-01,5.036746011556705525e+03,4.985961048526716538e-02
1.000000000000000000e+00,1.414213562373096422e-01,2.222515821058448637e+03,4.968184388493954856e-02
1.000000000000000000e+00,1.414213562373096422e-01,8.094731744808341034e+01,4.126567230462518943e-02
1.000000000000000000e+00,1.414213562373096422e-01,1.439463352034390300e+04,4.995087737112512832e-02
1.000000000000000000e+00,1.414213562373096422e-01,7.484387573590026932e+00,8.660013523287050236e-03
1.000000000000000000e+00,1.414213562373096422e-01,4.535230589314040844e+04,4.998440860484513332e-02
1.000000000000000000e+00,1.414213562373096422e-01,4.448597300165471324e+01,3.429053440171681705e-02
1.000000000000000000e+00,1.414213562373096422e-01,1.580445864629057905e+04,4.995525892668536277e-02
1.000000000000000000e+00,1.414213562373096422e-01,5.400545184665318811e+04,4.998690713868522012e-02
2.000000000000000000e+00,1.414213562373096422e-01,2.419232844085544087e+01,1.014304656650312324e-02
2.000000000000000000e+00,1.414213562373096422e-01,1.218618217941263174e+04,2.941701547574792491e-02
2.000000000000000000e+00,1.414213562373096422e-01,1.273913155768271963e+03,2.893548358931750594e-02
2.000000000000000000e+00,1.414213562373096422e-01,1.248165260609792313e+03,2.892449180013132240e-02
2.000000000000000000e+00,1.414213562373096422e-01,3.140541152258180091e+01,1.276078791560671111e-02
2.000000000000000000e+00,1.414213562373096422e-01,1.715288792045354057e+04,2.943344318615584779e-02
2.000000000000000000e+00,1.414213562373096422e-01,8.058714708634491330e+01,2.212616147272671030e-02
2.000000000000000000e+00,1.414213562373096422e-01,6.005168485081600011e+03,2.935869969373516852e-02
2.000000000000000000e+00,1.414213562373096422e-01,1.030761168275883222e+01,5.099119539097774281e-03
2.000000000000000000e+00,1.414213562373096422e-01,5.860739312616806984e+01,1.988977779962029444e-02
3.000000000000000000e+00,1.414213562373096422e-01,2.172767103351863511e+02,1.967000402715448487e-02
3.000000000000000000e+00,1.414213562373096422e-01,5.615317297302460702e+02,2.229447056367991203e-02
3.000000000000000000e+00,1.414213562373096422e-01,6.386900547261484462e+01,9.817649378550924455e-03
3.000000000000000000e+00,1.414213562373096422e-01,3.033622573061985861e+01,5.034745750392954564e-03
3.000000000000000000e+00,1.414213562373096422e-01,1.458874702486126444e+04,2.383648061811785915e-02
3.000000000000000000e+00,1.414213562373096422e-01,3.371224771476477713e+02,2.120834566906475496e-02
3.000000000000000000e+00,1.414213562373096422e-01,5.653018119234512540e+01,8.781594421618660329e-03
3.000000000000000000e+00,1.414213562373096422e-01,2.417881693216501844e+03,2.352752146263746569e-02
3.000000000000000000e+00,1.414213562373096422e-01,6.587406625763178454e+02,2.253282455740431359e-02
3.000000000000000000e+00,1.414213562373096422e-01,1.619600870533852444e+01,3.271569410403095835e-03
1.000000000000000000e+00,7.071067811865482111e-02,1.873284981461707275e+03,2.462253091496617238e-02
1.000000000000000000e+00,7.071067811865482111e-02,2.856786776810732249e+02,2.252481803733211510e-02
1.000000000000000000e+00,7.071067811865482111e-02,6.384284612823656789e+04,2.498892432826274601e-02
1.000000000000000000e+00,7.071067811865482111e-02,3.537427573248223922e+01,9.475463436392437752e-03
1.000000000000000000e+00,7.071067811865482111e-02,1.003735306289653272e+04,2.492955263889522904e-02
1.000000000000000000e+00,7.071067811865482111e-02,3.503300096218969702e+04,2.497981598652717489e-02
1.000000000000000000e+00,7.071067811865482111e-02,1.374403170180235747e+03,2.448551728862470925e-02
1.000000000000000000e+00,7.071067811865482111e-02,1.165336900278728990e+03,2.439321693625323348e-02
1.000000000000000000e+00,7.071067811865482111e-02,9.586252945748714183e+01,1.768070516653843030e-02
1.000000000000000000e+00,7.071067811865482111e-02,2.879698766129873184e+04,2.497544510096177256e-02
2.000000000000000000e+00,7.071067811865482111e-02,5.445584912844586825e+02,1.354856022520483164e-02
2.000000000000000000e+00,7.071067811865482111e-02,5.644892956312297429e+03,1.465343230536633734e-02
2.000000000000000000e+00,7.071067811865482111e-02,1.449101819524413486e+02,1.072100346974841877e-02
2.000000000000000000e+00,7.071067811865482111e-02,6.293785662327194075e+01,6.504522684454052892e-03
2.000000000000000000e+00,7.071067811865482111e-02,4.704036679972866182e+02,1.336533715582488048e-02
2.000000000000000000e+00,7.071067811865482111e-02,5.485559177110855671e+03,1.464986007282465842e-02
2.000000000000000000e+00,7.071067811865482111e-02,6.863018995359193752e+01,7.105646239652225332e-03
2.000000000000000000e+00,7.071067811865482111e-02,1.106493542172271646e+03,1.415802039641783985e-02
2.000000000000000000e+00,7.071067811865482111e-02,6.896556241446326021e+04,1.476682271481276690e-02
2.000000000000000000e+00,7.071067811865482111e-02,3.130590127326778202e+03,1.455499476733813739e-02
3.000000000000000000e+00,7.071067811865482111e-02,1.325258268575354066e+02,5.053475581121772212e-03
3.000000000000000000e+00,7.071067811865482111e-02,3.232541103753124503e+02,8.972683103306264979e-03
3.000000000000000000e+00,7.071067811865482111e-02,1.471505063720761791e+04,1.170812487108642726e-02
3.000000000000000000e+00,7.071067811865482111e-02,3.461081764023184064e+02,9.170432444246126927e-03
3.000000000000000000e+00,7.071067811865482111e-02,8.799096918233574343e+02,1.078216494003936612e-02
3.000000000000000000e+00,7.071067811865482111e-02,6.759385975192030310e+04,1.175346369766454811e-02
3.000000000000000000e+00,7.071067811865482111e-02,1.011366695784516594e+02,3.949958158610935958e-03
3.000000000000000000e+00,7.071067811865482111e-02,1.616763198510496480e+01,1.131572919367394457e-03
3.000000000000000000e+00,7.071067811865482111e-02,5.514111488425471208e+01,2.315423265012130777e-03
3.000000000000000000e+00,7.071067811865482111e-02,1.589150440203900061e+01,1.120655427650819620e-03
1.000000000000000000e+00,3.535533905932741056e-02,1.143386949741085573e+03,1.188156827637080679e-02
1.000000000000000000e+00,3.535533905932741056e-02,1.395350962640105172e+04,1.244932405129925597e-02
1.000000000000000000e+00,3.535533905932741056e-02,2.073762349622782608e+02,9.106592231350612437e-03
1.000000000000000000e+00,3.535533905932741056e-02,4.746655876979543223e+02,1.101030672352056212e-02
1.000000000000000000e+00,3.535533905932741056e-02,5.008907464896197780e+04,1.248588308829845679e-02
1.000000000000000000e+00,3.535533905932741056e-02,4.606021442735467986e+01,3.251583607123122339e-03
1.000000000000000000e+00,3.535533905932741056e-02,9.827640650445255233e+03,1.242804923790855227e-02
1.000000000000000000e+00,3.535533905932741056e-02,3.370906740551283178e+02,1.040249141461787805e-02
1.000000000000000000e+00,3.535533905932741056e-02,2.428059857291456865e+04,1.247087763721858519e-02
1.000000000000000000e+00,3.535533905932741056e-02,6.216482448013814519e+02,1.136252906520453590e-02
2.000000000000000000e+00,3.535533905932741056e-02,1.499395516247971116e+01,5.089858783796750866e-04
2.000000000000000000e+00,3.535533905932741056e-02,1.714419221913317642e+03,6.999310435550681365e-03
2.000000000000000000e+00,3.535533905932741056e-02,2.042078286559836542e+01,6.966327295056695028e-04
2.000000000000000000e+00,3.535533905932741056e-02,9.793921762377754021e+02,6.714963436517480157e-03
2.000000000000000000e+00,3.535533905932741056e-02,1.116577093515913077e+01,3.755135094847179855e-04
2.000000000000000000e+00,3.535533905932741056e-02,4.636634472606512247e+01,1.494399313663598121e-03
2.000000000000000000e+00,3.535533905932741056e-02,6.314144395183434426e+03,7.287805685219255099e-03
2.000000000000000000e+00,3.535533905932741056e-02,8.722662530572055175e+02,6.635891628789440319e-03
2.000000000000000000e+00,3.535533905932741056e-02,4.154265128028060644e+03,7.230932376513735799e-03
2.000000000000000000e+00,3.535533905932741056e-02,8.396553122312114283e+03,7.315099319094761285e-03
3.000000000000000000e+00,3.535533905932741056e-02,8.737743810753167963e+02,4.844404688544347477e-03
3.000000000000000000e+00,3.535533905932741056e-02,2.286377188997391130e+01,4.456555796377102132e-04
3.000000000000000000e+00,3.535533905932741056e-02,5.553790196128610432e+02,4.218105942902045276e-03
3.000000000000000000e+00,3.535533905932741056e-02,4.355926594837228549e+03,5.648453019381726586e-03
3.000000000000000000e+00,3.535533905932741056e-02,1.765022290395940217e+04,5.793777942204743001e-03
3.000000000000000000e+00,3.535533905932741056e-02,1.689114643428852247e+01,3.550258038476365361e-04
3.000000000000000000e+00,3.535533905932741056e-02,2.073455963189541944e+04,5.800820798136928878e-03
3.000000000000000000e+00,3.535533905932741056e-02,8.513013218400667029e+03,5.742853226924144426e-03
3.000000000000000000e+00,3.535533905932741056e-02,5.611598850746834614e+03,5.691796603074485150e-03
3.000000000000000000e+00,3.535533905932741056e-02,1.604818936879030673e+02,1.596309079515654010e-03
1.000000000000000000e+00,1.414213562373096422e-01,3.215905124159817933e+04,4.997801182692940963e-02
1.000000000000000000e+00,1.414213562373096422e-01,1.496652403637900352e+04,4.995275433977246909e-02
1.000000000000000000e+00,1.414213562373096422e-01,1.742928117591451155e+04,4.995942983320518505e-02
1.000000000000000000e+00,1.414213562373096422e-01,8.380359173648110982e+01,4.156304600203213767e-02
1.000000000000000000e+00,1.414213562373096422e-01,1.584056964876916709e+03,4.955360988193663330e-02
1.000000000000000000e+00,1.414213562373096422e-01,1.315697173782349694e+02,4.462561240288062669e-02
1.000000000000000000e+00,1.414213562373096422e-01,1.977933377624787852e+02,4.642502211324438244e-02
1.000000000000000000e+00,1.414213562373096422e-01,1.148672228651690830e+03,4.938441367023496675e-02
1.000000000000000000e+00,1.414213562373096422e-01,3.968114512302496223e+03,4.982180298832515619e-02
1.000000000000000000e+00,1.414213562373096422e-01,2.416988795724763622e+04,4.997074408575589294e-02
2.000000000000000000e+00,1.414213562373096422e-01,1.294177513070474284e+01,6.170803113003530023e-03
2.000000000000000000e+00,1.414213562373096422e-01,4.783429058405893556e+03,2.932938162483258310e-02
2.000000000000000000e+00,1.414213562373096422e-01,1.987828906500896835e+02,2.620595012240400576e-02
2.000000000000000000e+00,1.414213562373096422e-01,3.568492670327293126e+03,2.928038960997557741e-02
2.000000000000000000e+00,1.414213562373096422e-01,1.009683945283846697e+04,2.940528146667087048e-02
2.000000000000000000e+00,1.414213562373096422e-01,4.227920259167248332e+03,2.931046423750997831e-02
2.000000000000000000e+00,1.414213562373096422e-01,6.091928655791290112e+03,2.936033541184188481e-02
2.000000000000000000e+00,1.414213562373096422e-01,3.001939547353702764e+01,1.223571968038682407e-02
2.000000000000000000e+00,1.414213562373096422e-01,9.543568830870069633e+02,2.875762794923320334e-02
2.000000000000000000e+00,1.414213562373096422e-01,1.805979496765262229e+04,2.943546794215905205e-02
3.000000000000000000e+00,1.414213562373096422e-01,3.117692891513009101e+01,5.151234818386671126e-03
3.000000000000000000e+00,1.414213562373096422e-01,1.471517564623663748e+04,2.383700741809884407e-02
3.000000000000000000e+00,1.414213562373096422e-01,5.123814911029452560e+03,2.372317612962400110e-02
3.000000000000000000e+00,1.414213562373096422e-01,9.193434784823704831e+03,2.380049293411211006e-02
3.000000000000000000e+00,1.414213562373096422e-01,4.107568041173863804e+01,6.559329449734157061e-03
3.000000000000000000e+00,1.414213562373096422e-01,1.709243867797442107e+01,3.369113879999099601e-03
3.000000000000000000e+00,1.414213562373096422e-01,1.233456909979410625e+02,1.617315319253591344e-02
3.000000000000000000e+00,1.414213562373096422e-01,2.068316845073034926e+01,3.779929710363848921e-03
3.000000000000000000e+00,1.414213562373096422e-01,1.779681345766022957e+02,1.868454957257741425e-02
3.000000000000000000e+00,1.414213562373096422e-01,2.809416642316390380e+02,2.065665129011224482e-02
1.000000000000000000e+00,7.071067811865482111e-02,6.017084944995620026e+04,2.498824816861837383e-02
1.000000000000000000e+00,7.071067811865482111e-02,1.580265813835078916e+03,2.455253943327760646e-02
1.000000000000000000e+00,7.071067811865482111e-02,1.012071768182461184e+01,2.956699197981782143e-03
1.000000000000000000e+00,7.071067811865482111e-02,1.282404983311199409e+01,3.727534573514665241e-03
1.000000000000000000e+00,7.071067811865482111e-02,1.729279998488229708e+01,4.972330984354144702e-03
1.000000000000000000e+00,7.071067811865482111e-02,1.172715631312781170e+03,2.439703485678544267e-02
1.000000000000000000e+00,7.071067811865482111e-02,3.593225895962026470e+02,2.303211152740868711e-02
1.000000000000000000e+00,7.071067811865482111e-02,6.901867719832995363e+01,1.513746949759163692e-02
1.000000000000000000e+00,7.071067811865482111e-02,7.509927660176784229e+03,2.490584370628845523e-02
1.000000000000000000e+00,7.071067811865482111e-02,1.361579377880795327e+01,3.950952867932319527e-03
2.000000000000000000e+00,7.071067811865482111e-02,5.140141439898232784e+04,1.476335506966728814e-02
2.000000000000000000e+00,7.071067811865482111e-02,8.619792507386824582e+03,1.469594742631505010e-02
2.000000000000000000e+00,7.071067811865482111e-02,9.353885180218152584e+01,9.021335740639280926e-03
2.000000000000000000e+00,7.071067811865482111e-02,1.500379727949901110e+01,1.980342733935578064e-03
2.000000000000000000e+00,7.071067811865482111e-02,6.082541778240258878e+01,6.293972615960739987e-03
2.000000000000000000e+00,7.071067811865482111e-02,2.808283017639501509e+02,1.249770957087206584e-02
2.000000000000000000e+00,7.071067811865482111e-02,3.081751877703907212e+03,1.455150527063493043e-02
2.000000000000000000e+00,7.071067811865482111e-02,1.450275108311985583e+01,1.917447972882176587e-03
2.000000000000000000e+00,7.071067811865482111e-02,2.890608804728529080e+01,3.470127958273844324e-03
2.000000000000000000e+00,7.071067811865482111e-02,5.696503448463630548e+01,5.924321310704353492e-03
3.000000000000000000e+00,7.071067811865482111e-02,2.371852987439121989e+03,1.140497331671669334e-02
3.000000000000000000e+00,7.071067811865482111e-02,7.570559163523543020e+02,1.061884698155037519e-02
3.000000000000000000e+00,7.071067811865482111e-02,3.679550968600350984e+02,9.334803156205559796e-03
3.000000000000000000e+00,7.071067811865482111e-02,1.710404555176101348e+04,1.171622394399723759e-02
3.000000000000000000e+00,7.071067811865482111e-02,5.855992464139243339e+02,1.027217128718399021e-02
3.000000000000000000e+00,7.071067811865482111e-02,3.399053798002556869e+04,1.174099621675784265e-02
3.000000000000000000e+00,7.071067811865482111e-02,2.120320923084739115e+04,1.172586597736766621e-02
3.000000000000000000e+00,7.071067811865482111e-02,9.402135384781422545e+01,3.694607958768539313e-03
3.000000000000000000e+00,7.071067811865482111e-02,3.298622109211927182e+03,1.150682834158084540e-02
3.000000000000000000e+00,7.071067811865482111e-02,1.640298878346861966e+04,1.171409199893773227e-02
1.000000000000000000e+00,3.535533905932741056e-02,1.123822553845614536e+01,8.256035955413443782e-04
1.000000000000000000e+00,3.535533905932741056e-02,4.587544164145384116e+02,1.095863996562901344e-02
1.000000000000000000e+00,3.535533905932741056e-02,1.671083010555053860e+01,1.223766996501386229e-03
1.000000000000000000e+00,3.535533905932741056e-02,4.177871760653435194e+04,1.248307487724355409e-02
1.000000000000000000e+00,3.535533905932741056e-02,1.541748738709927784e+04,1.245413618709525182e-02
1.000000000000000000e+00,3.535533905932741056e-02,2.105594068197009960e+01,1.536777887162372232e-03
1.000000000000000000e+00,3.535533905932741056e-02,1.132235126052200158e+01,8.317510695605954962e-04
1.000000000000000000e+00,3.535533905932741056e-02,1.075071320046724743e+01,7.899646319152338857e-04
1.000000000000000000e+00,3.535533905932741056e-02,5.468282937287795903e+03,1.237068933934821861e-02
1.000000000000000000e+00,3.535533905932741056e-02,8.098709637631789064e+02,1.162688950895448929e-02
2.000000000000000000e+00,3.535533905932741056e-02,3.083165283363379785e+04,7.375694748161174853e-03
2.000000000000000000e+00,3.535533905932741056e-02,5.211355818335965751e+02,6.171723071423221123e-03
2.000000000000000000e+00,3.535533905932741056e-02,7.821020860127504193e+00,2.591477327977053735e-04
2.000000000000000000e+00,3.535533905932741056e-02,1.391620080795375003e+01,4.714429485839731200e-04
2.000000000000000000e+00,3.535533905932741056e-02,1.468288547569752154e+03,6.934671403471242418e-03
2.000000000000000000e+00,3.535533905932741056e-02,6.753980117801945937e+01,1.982926966555032498e-03
2.000000000000000000e+00,3.535533905932741056e-02,5.240936943500582856e+02,6.177963415644274064e-03
2.000000000000000000e+00,3.535533905932741056e-02,4.436947157152275759e+04,7.382647213117264282e-03
2.000000000000000000e+00,3.535533905932741056e-02,1.563175771555602012e+01,5.311751567337306447e-04
2.000000000000000000e+00,3.535533905932741056e-02,4.448632585063661793e+01,1.444743858767178531e-03
3.000000000000000000e+00,3.535533905932741056e-02,1.889334076062876022e+01,3.873168739325728101e-04
3.000000000000000000e+00,3.535533905932741056e-02,5.909746429958117915e+03,5.699366966175059210e-03
3.000000000000000000e+00,3.535533905932741056e-02,5.788098559841576207e+04,5.826655940999033063e-03
3.000000000000000000e+00,3.535533905932741056e-02,3.872777053540850829e+03,5.624221575243033323e-03
3.000000000000000000e+00,3.535533905932741056e-02,1.249670467290541964e+01,2.776095574694391051e-04
3.000000000000000000e+00,3.535533905932741056e-02,5.358864948797872785e+02,4.153334444392147058e-03
3.000000000000000000e+00,3.535533905932741056e-02,8.234652728532008041e+03,5.739521257308498325e-03
3.000000000000000000e+00,3.535533905932741056e-02,3.488252521234083360e+03,5.600091254126377677e-03
3.000000000000000000e+00,3.535533905932741056e-02,2.522236071927358481e+01,4.768628648196565774e-04
3.000000000000000000e+00,3.535533905932741056e-02,7.821805157700918016e+02,4.720187098132533170e-03
1.000000000000000000e+00,1.414213562373096422e-01,7.599023443278912964e+03,4.990694785588989379e-02
1.000000000000000000e+00,1.414213562373096422e-01,5.346742365688398422e+04,4.998677486579876372e-02
1.000000000000000000e+00,1.414213562373096422e-01,5.399166247236794879e+04,4.998690367559296271e-02
1.000000000000000000e+00,1.414213562373096422e-01,7.364180078238261729e+01,4.040102386087200681e-02
1.000000000000000000e+00,1.414213562373096422e-01,2.672449006276713590e+03,4.973540899449303831e-02
1.000000000000000000e+00,1.414213562373096422e-01,1.976777415040187407e+04,4.996422925251410574e-02
1.000000000000000000e+00,1.414213562373096422e-01,1.442264311213164319e+03,4.950972453480907698e-02
1.000000000000000000e+00,1.414213562373096422e-01,1.865609322207590992e+02,4.620978107083158898e-02
1.000000000000000000e+00,1.414213562373096422e-01,1.620523915839338997e+03,4.956365543221379760e-02
1.000000000000000000e+00,1.414213562373096422e-01,1.827952305731909348e+02,4.613169983718721362e-02
2.000000000000000000e+00,1.414213562373096422e-01,2.218462333873263788e+02,2.652599711679254693e-02
2.000000000000000000e+00,1.414213562373096422e-01,1.331263935004155246e+04,2.942181506467285435e-02
2.000000000000000000e+00,1.414213562373096422e-01,1.016328940555977852e+03,2.880075124211009877e-02
2.000000000000000000e+00,1.414213562373096422e-01,1.029971267765198036e+03,2.880955652838053035e-02
2.000000000000000000e+00,1.414213562373096422e-01,1.840391103266287018e+02,2.596232931430997315e-02
2.000000000000000000e+00,1.414213562373096422e-01,1.331730249087287916e+02,2.474810656914143078e-02
2.000000000000000000e+00,1.414213562373096422e-01,6.084679658902503434e+03,2.936020052617465195e-02
2.000000000000000000e+00,1.414213562373096422e-01,7.679066189005336128e+03,2.938374591371079383e-02
2.000000000000000000e+00,1.414213562373096422e-01,2.076955657434863411e+01,8.962534045348998293e-03
2.000000000000000000e+00,1.414213562373096422e-01,4.351198324111516058e+02,2.792780085705407617e-02
3.000000000000000000e+00,1.414213562373096422e-01,2.009869123490635502e+03,2.345223528111819652e-02
3.000000000000000000e+00,1.414213562373096422e-01,3.399308338303101482e+04,2.387147737548133905e-02
3.000000000000000000e+00,1.414213562373096422e-01,2.137787844807026616e+01,3.863408176399389053e-03
3.000000000000000000e+00,1.414213562373096422e-01,1.338485378931655312e+01,2.973111087195605840e-03
3.000000000000000000e+00,1.414213562373096422e-01,8.634580783504525243e+03,2.379419395110203908e-02
3.000000000000000000e+00,1.414213562373096422e-01,4.999970715431325516e+04,2.387989951200680458e-02
3.000000000000000000e+00,1.414213562373096422e-01,5.452785298123285429e+02,2.224623155962808865e-02
3.000000000000000000e+00,1.414213562373096422e-01,4.318250341063791711e+04,2.387707590467848598e-02
3.000000000000000000e+00,1.414213562373096422e-01,1.407212164046665566e+04,2.383422956770220660e-02
3.000000000000000000e+00,1.414213562373096422e-01,2.966610391363456074e+03,2.359608024245121727e-02
1.000000000000000000e+00,7.071067811865482111e-02,2.054592537609402214e+01,5.850620561272434732e-03
1.000000000000000000e+00,7.071067811865482111e-02,3.215770415114870048e+03,2.478011284813552706e-02
1.000000000000000000e+00,7.071067811865482111e-02,9.134295193788764664e+03,2.492258768751026352e-02
1.000000000000000000e+00,7.071067811865482111e-02,5.426781669640250766e+04,2.498697000267241855e-02
1.000000000000000000e+00,7.071067811865482111e-02,1.132670618433215532e+04,2.493757171533491843e-02
1.000000000000000000e+00,7.071067811865482111e-02,2.710401295271122217e+04,2.497391158222280610e-02
1.000000000000000000e+00,7.071067811865482111e-02,1.015450249568646335e+01,2.966402532348890592e-03
1.000000000000000000e+00,7.071067811865482111e-02,3.232604397839129433e+02,2.281257849675615360e-02
1.000000000000000000e+00,7.071067811865482111e-02,7.903337043186385927e+03,2.491053045825883383e-02
1.000000000000000000e+00,7.071067811865482111e-02,2.345560076751128690e+03,2.469853390254380873e-02
2.000000000000000000e+00,7.071067811865482111e-02,2.029054104212803793e+02,1.173138030206853817e-02
2.000000000000000000e+00,7.071067811865482111e-02,7.716147818992600151e+03,1.468648881845233296e-02
2.000000000000000000e+00,7.071067811865482111e-02,6.336745682043737133e+02,1.371438654089308061e-02
2.000000000000000000e+00,7.071067811865482111e-02,2.495259505923221150e+04,1.474893206723542315e-02
2.000000000000000000e+00,7.071067811865482111e-02,2.234591283563116448e+01,2.827927027560112657e-03
2.000000000000000000e+00,7.071067811865482111e-02,2.261765242693118489e+04,1.474604014198802222e-02
2.000000000000000000e+00,7.071067811865482111e-02,1.008911946828151542e+02,9.353991718454595164e-03
2.000000000000000000e+00,7.071067811865482111e-02,1.445798132986220139e+02,1.071334070694073340e-02
2.000000000000000000e+00,7.071067811865482111e-02,8.820275223865715475e+01,8.744355498972728249e-03
2.000000000000000000e+00,7.071067811865482111e-02,2.951842331254606506e+03,1.454166591443100537e-02
3.000000000000000000e+00,7.071067811865482111e-02,2.258877923931447071e+02,7.642719398280541435e-03
3.000000000000000000e+00,7.071067811865482111e-02,4.058220698694332640e+01,1.851140372038519817e-03
3.000000000000000000e+00,7.071067811865482111e-02,1.719741174862058131e+02,6.321397450853439952e-03
3.000000000000000000e+00,7.071067811865482111e-02,2.045497289578512721e+02,7.183510765869584487e-03
3.000000000000000000e+00,7.071067811865482111e-02,2.096548323244297990e+03,1.135725112065986107e-02
3.000000000000000000e+00,7.071067811865482111e-02,1.320707345995312426e+04,1.170150276340001239e-02
3.000000000000000000e+00,7.071067811865482111e-02,1.508570689657231560e+04,1.170954970730468843e-02
3.000000000000000000e+00,7.071067811865482111e-02,2.195917820459859286e+03,1.137586527885674909e-02
3.000000000000000000e+00,7.071067811865482111e-02,1.315676554797953486e+03,1.111196987153991421e-02
3.000000000000000000e+00,7.071067811865482111e-02,1.568946686232024877e+04,1.171172636282989329e-02
1.000000000000000000e+00,3.535533905932741056e-02,1.099664143805388449e+04,1.243569792774222235e-02
1.000000000000000000e+00,3.535533905932741056e-02,3.905135730156619900e+01,2.788977015651315956e-03
1.000000000000000000e+00,3.535533905932741056e-02,2.329738136881276296e+04,1.246964858201041713e-02
1.000000000000000000e+00,3.535533905932741056e-02,4.452953606098664352e+01,3.151946796246766092e-03
1.000000000000000000e+00,3.535533905932741056e-02,1.598615597281267583e+03,1.205767546382652440e-02
1.000000000000000000e+00,3.535533905932741056e-02,7.892062731469542086e+03,1.241040285941523956e-02
1.000000000000000000e+00,3.535533905932741056e-02,2.450979010578855366e+01,1.783119131796689124e-03
1.000000000000000000e+00,3.535533905932741056e-02,1.393580341037417611e+03,1.199259702209852160e-02
1.000000000000000000e+00,3.535533905932741056e-02,1.657881921956560234e+02,8.306256122340739678e-03
1.000000000000000000e+00,3.535533905932741056e-02,8.106431027023299066e+03,1.241277210601589819e-02
2.000000000000000000e+00,3.535533905932741056e-02,5.843748356864321067e+02,6.292680010028896265e-03
2.000000000000000000e+00,3.535533905932741056e-02,6.460788546102826331e+02,6.389838444520797023e-03
2.000000000000000000e+00,3.535533905932741056e-02,7.560719740338870906e+03,7.305938499246917781e-03
2.000000000000000000e+00,3.535533905932741056e-02,1.412251441696787697e+04,7.348798789009077827e-03
2.000000000000000000e+00,3.535533905932741056e-02,1.165986563372133105e+03,6.819583656282862845e-03
2.000000000000000000e+00,3.535533905932741056e-02,9.095564940168775081e+01,2.476495655673563185e-03
2.000000000000000000e+00,3.535533905932741056e-02,9.433947120887311257e+02,6.690283505181441812e-03
2.000000000000000000e+00,3.535533905932741056e-02,2.958979179634361856e+01,1.002709107368383347e-03
2.000000000000000000e+00,3.535533905932741056e-02,1.886432537753978977e+04,7.361260944119423812e-03
2.000000000000000000e+00,3.535533905932741056e-02,2.844255515730919370e+01,9.654940484643619817e-04
3.000000000000000000e+00,3.535533905932741056e-02,8.846864569326370997e+00,2.078953617615128503e-04
3.000000000000000000e+00,3.535533905932741056e-02,3.514580297714944754e+04,5.817332835216155497e-03
3.000000000000000000e+00,3.535533905932741056e-02,1.094062992533017450e+03,5.053669879191763879e-03
3.000000000000000000e+00,3.535533905932741056e-02,1.750127032118113846e+02,1.727020820588734233e-03
3.000000000000000000e+00,3.535533905932741056e-02,4.056613128702183531e+03,5.634127625551284442e-03
3.000000000000000000e+00,3.535533905932741056e-02,9.915322756907977464e+02,4.968474068759349410e-03
3.000000000000000000e+00,3.535533905932741056e-02,8.035832721591090433e+01,9.158977548921750722e-04
3.000000000000000000e+00,3.535533905932741056e-02,8.564023020595075764e+01,9.556979609212525430e-04
3.000000000000000000e+00,3.535533905932741056e-02,2.495056741027408407e+02,2.387924192998885139e-03
3.000000000000000000e+00,3.535533905932741056e-02,5.267311831456714089e+01,7.214353911672808381e-04
1.000000000000000000e+00,1.414213562373096422e-01,3.153091041990788312e+02,4.775741680707600717e-02
1.000000000000000000e+00,1.414213562373096422e-01,1.151444540265836309e+02,4.385896808730181673e-02
1.000000000000000000e+00,1.414213562373096422e-01,8.516392967108650680e+00,9.802103214989563856e-03
1.000000000000000000e+00,1.414213562373096422e-01,6.440506156803252225e+01,3.903201994837070254e-02
1.000000000000000000e+00,1.414213562373096422e-01,1.041475608459979796e+01,1.185187851817440415e-02
1.000000000000000000e+00,1.414213562373096422e-01,2.268446344772178804e+02,4.688285899341588375e-02
1.000000000000000000e+00,1.414213562373096422e-01,8.426559716302217851e+01,4.160926260527171572e-02
1.000000000000000000e+00,1.414213562373096422e-01,6.064319401414398669e+01,3.835873899725041752e-02
1.000000000000000000e+00,1.414213562373096422e-01,7.509757369685226536e+01,4.058660115327056284e-02
1.000000000000000000e+00,1.414213562373096422e-01,8.654806826398621311e+00,9.953869877929229920e-03
2.000000000000000000e+00,1.414213562373096422e-01,6.532161051486401959e+01,2.070991994681952927e-02
2.000000000000000000e+00,1.414213562373096422e-01,2.893859670613990787e+01,1.183492831540659818e-02
2.000000000000000000e+00,1.414213562373096422e-01,4.511248163111116583e+02,2.798109885613954059e-02
2.000000000000000000e+00,1.414213562373096422e-01,1.823872528260195054e+02,2.593275889608904691e-02
2.000000000000000000e+00,1.414213562373096422e-01,3.924621866618883104e+01,1.584597671205838915e-02
2.000000000000000000e+00,1.414213562373096422e-01,7.838777118196092886e+01,2.195145093944863082e-02
2.000000000000000000e+00,1.414213562373096422e-01,1.595977564732683902e+02,2.546747161265066478e-02
2.000000000000000000e+00,1.414213562373096422e-01,5.384791428963912807e+01,1.919881965945070129e-02
2.000000000000000000e+00,1.414213562373096422e-01,2.974549697170567697e+02,2.724280750127350617e-02
2.000000000000000000e+00,1.414213562373096422e-01,5.836049190856330824e+03,2.935537173727251897e-02
3.000000000000000000e+00,1.414213562373096422e-01,6.188724613942797959e+01,9.539979154498483965e-03
3.000000000000000000e+00,1.414213562373096422e-01,9.941703046400569292e+03,2.380781767102848473e-02
3.000000000000000000e+00,1.414213562373096422e-01,1.440230827163265026e+01,3.080485085862383170e-03
3.000000000000000000e+00,1.414213562373096422e-01,3.210469998273045348e+03,2.361901879410141514e-02
3.000000000000000000e+00,1.414213562373096422e-01,5.831853252599993721e+04,2.388245076928626615e-02
3.000000000000000000e+00,1.414213562373096422e-01,1.227947736469960773e+02,1.613576787961079964e-02
3.000000000000000000e+00,1.414213562373096422e-01,1.517678722824830650e+01,3.162490124521376289e-03
3.000000000000000000e+00,1.414213562373096422e-01,6.725714506612832793e+02,2.256108917647120515e-02
3.000000000000000000e+00,1.414213562373096422e-01,2.259194782295630262e+02,1.983820099765053885e-02
3.000000000000000000e+00,1.414213562373096422e-01,6.986666075903426645e+02,2.261134505004074036e-02
1.000000000000000000e+00,7.071067811865482111e-02,1.078672055414032940e+02,1.846901356497969784e-02
1.000000000000000000e+00,7.071067811865482111e-02,1.974216727473850952e+01,5.636030892451564245e-03
1.000000000000000000e+00,7.071067811865482111e-02,5.447673099082751833e+03,2.487020015395153757e-02
1.000000000000000000e+00,7.071067811865482111e-02,4.441047070744684788e+03,2.484077928424427775e-02
1.000000000000000000e+00,7.071067811865482111e-02,5.375782470660012768e+04,2.498684656938459855e-02
1.000000000000000000e+00,7.071067811865482111e-02,2.232191354106399558e+03,2.468322299702671932e-02
1.000000000000000000e+00,7.071067811865482111e-02,3.229198417823856175e+02,2.281027164504349086e-02
1.000000000000000000e+00,7.071067811865482111e-02,2.279545930283323287e+03,2.468980384330398889e-02
1.000000000000000000e+00,7.071067811865482111e-02,4.069304480779464484e+03,2.482623380957096546e-02
1.000000000000000000e+00,7.071067811865482111e-02,6.441593807451175235e+04,2.498902276990631541e-02
2.000000000000000000e+00,7.071067811865482111e-02,1.215692334374000012e+02,1.009758858466367620e-02
2.000000000000000000e+00,7.071067811865482111e-02,3.623583882658349012e+03,1.458498848522222190e-02
2.000000000000000000e+00,7.071067811865482111e-02,8.876443891087198779e+00,1.179362340139086590e-03
2.000000000000000000e+00,7.071067811865482111e-02,2.105364923446899752e+02,1.182827684920424033e-02
2.000000000000000000e+00,7.071067811865482111e-02,1.212541705464369261e+04,1.471932595295703111e-02
2.000000000000000000e+00,7.071067811865482111e-02,4.769225451621224056e+04,1.476229630832849755e-02
2.000000000000000000e+00,7.071067811865482111e-02,2.540615559766187653e+04,1.474943222482284419e-02
2.000000000000000000e+00,7.071067811865482111e-02,3.271271119687537976e+03,1.456446855040602860e-02
2.000000000000000000e+00,7.071067811865482111e-02,6.197663016385801029e+02,1.369151398818365013e-02
2.000000000000000000e+00,7.071067811865482111e-02,2.274210544035000112e+03,1.447231815676166752e-02
3.000000000000000000e+00,7.071067811865482111e-02,2.921920987829799560e+04,1.173690009688984834e-02
3.000000000000000000e+00,7.071067811865482111e-02,1.191010068172239517e+04,1.169446456105682416e-02
3.000000000000000000e+00,7.071067811865482111e-02,5.610314756038965425e+04,1.175088110511900499e-02
3.000000000000000000e+00,7.071067811865482111e-02,4.298340224029007004e+02,9.703879111809634792e-03
3.000000000000000000e+00,7.071067811865482111e-02,1.447134985324989316e+02,5.464640444356128925e-03
3.000000000000000000e+00,7.071067811865482111e-02,1.350925773207963175e+04,1.170294831977184737e-02
3.000000000000000000e+00,7.071067811865482111e-02,3.620893918948950727e+02,9.292767904995729786e-03
3.000000000000000000e+00,7.071067811865482111e-02,4.829598335873628821e+04,1.174842510604822733e-02
3.000000000000000000e+00,7.071067811865482111e-02,9.684128835106672341e+03,1.167798501083063337e-02
3.000000000000000000e+00,7.071067811865482111e-02,9.788888047927159278e+03,1.167892883415185337e-02
1.000000000000000000e+00,3.535533905932741056e-02,4.681399145293626134e+03,1.234895393604105822e-02
1.000000000000000000e+00,3.535533905932741056e-02,7.315357339738472547e+03,1.240333948326899534e-02
1.000000000000000000e+00,3.535533905932741056e-02,1.463745964073587311e+04,1.245169201393202078e-02
1.000000000000000000e+00,3.535533905932741056e-02,5.413219324144002894e+04,1.248693743217494517e-02
1.000000000000000000e+00,3.535533905932741056e-02,2.893085992407381823e+01,2.094702784660729990e-03
1.000000000000000000e+00,3.535533905932741056e-02,2.035676046889921281e+03,1.215264279374415543e-02
1.000000000000000000e+00,3.535533905932741056e-02,2.034458450339499450e+03,1.215243484627784656e-02
1.000000000000000000e+00,3.535533905932741056e-02,1.483977039729237646e+01,1.088070163046978055e-03
1.000000000000000000e+00,3.535533905932741056e-02,1.877371441120056090e+02,8.766327566394763529e-03
1.000000000000000000e+00,3.535533905932741056e-02,1.277615138239384578e+02,7.241460498170094497e-03
2.000000000000000000e+00,3.535533905932741056e-02,2.162433349234050911e+04,7.366003947537022242e-03
2.000000000000000000e+00,3.535533905932741056e-02,9.224043412238204382e+02,6.675054335729234053e-03
2.000000000000000000e+00,3.535533905932741056e-02,4.955377240604982944e+04,7.384304742876459521e-03
2.000000000000000000e+00,3.535533905932741056e-02,1.697972266467783129e+02,4.308241942298495289e-03
2.000000000000000000e+00,3.535533905932741056e-02,4.781356878811354250e+02,6.073298322984605618e-03
2.000000000000000000e+00,3.535533905932741056e-02,1.045122477487143016e+02,2.773614224067732885e-03
2.000000000000000000e+00,3.535533905932741056e-02,3.726255280452983425e+04,7.379626462494928880e-03
2.000000000000000000e+00,3.535533905932741056e-02,7.241854260050103221e+03,7.301890373496706770e-03
2.000000000000000000e+00,3.535533905932741056e-02,6.891651144779843162e+04,7.388291959081794841e-03
2.000000000000000000e+00,3.535533905932741056e-02,3.298720875733310720e+01,1.110605932336824900e-03
3.000000000000000000e+00,3.535533905932741056e-02,1.133365047040539935e+02,1.180361529246775742e-03
3.000000000000000000e+00,3.535533905932741056e-02,2.768078361398185734e+04,5.810928250580503322e-03
3.000000000000000000e+00,3.535533905932741056e-02,7.986843795295916379e+02,4.744825641655677634e-03
3.000000000000000000e+00,3.535533905932741056e-02,2.381112385954617139e+01,4.584876194561987280e-04
3.000000000000000000e+00,3.535533905932741056e-02,1.044589361464928956e+01,2.388396762571562794e-04
3.000000000000000000e+00,3.535533905932741056e-02,9.436365852479477567e+00,2.193437217562643640e-04
3.000000000000000000e+00,3.535533905932741056e-02,5.396375120101572975e+04,5.825610048273722856e-03
3.000000000000000000e+00,3.535533905932741056e-02,5.763805552252653797e+03,5.695759747784578941e-03
3.000000000000000000e+00,3.535533905932741056e-02,4.849602992896202340e+04,5.823867495177067685e-03
3.000000000000000000e+00,3.535533905932741056e-02,1.339887607508071596e+03,5.202794492994313076e-03
1.000000000000000000e+00,1.414213562373096422e-01,1.777941614554858631e+02,4.602289116998634771e-02
1.000000000000000000e+00,1.414213562373096422e-01,5.221023976342155493e+02,4.864565497016330037e-02
1.000000000000000000e+00,1.414213562373096422e-01,3.198277775099815301e+01,2.898851714690728332e-02
1.000000000000000000e+00,1.414213562373096422e-01,6.546058079381091943e+01,3.920751598657177400e-02
1.000000000000000000e+00,1.414213562373096422e-01,8.161293614337655100e+00,9.411186611494067392e-03
1.000000000000000000e+00,1.414213562373096422e-01,1.072941802048465070e+04,4.993409646912326527e-02
1.000000000000000000e+00,1.414213562373096422e-01,1.104289453638867826e+02,4.359674261025487524e-02
1.000000000000000000e+00,1.414213562373096422e-01,4.833940323128405225e+01,3.547957215366935591e-02
1.000000000000000000e+00,1.414213562373096422e-01,5.125048714621917497e+03,4.986202917686526070e-02
1.000000000000000000e+00,1.414213562373096422e-01,1.244260228054114668e+04,4.994317028762762511e-02
2.000000000000000000e+00,1.414213562373096422e-01,3.599083342359377184e+03,2.928202766932039985e-02
2.000000000000000000e+00,1.414213562373096422e-01,1.450766971554148199e+01,6.762214683826123229e-03
2.000000000000000000e+00,1.414213562373096422e-01,7.618388960825654067e+03,2.938302993127548529e-02
2.000000000000000000e+00,1.414213562373096422e-01,3.828604071399450731e+03,2.929348574319715764e-02
2.000000000000000000e+00,1.414213562373096422e-01,4.670905224789710530e+01,1.790075268578902173e-02
2.000000000000000000e+00,1.414213562373096422e-01,2.327394675708107752e+04,2.944404908184604028e-02
2.000000000000000000e+00,1.414213562373096422e-01,6.522125215887395461e+04,2.946317440392939510e-02
2.000000000000000000e+00,1.414213562373096422e-01,7.027911375598941390e+01,2.122743673578959822e-02
2.000000000000000000e+00,1.414213562373096422e-01,1.353893335034664460e+02,2.481818459732604287e-02
2.000000000000000000e+00,1.414213562373096422e-01,1.807614749027638254e+03,2.909330459575872052e-02
3.000000000000000000e+00,1.414213562373096422e-01,3.562887694332807769e+03,2.364661584321121543e-02
3.000000000000000000e+00,1.414213562373096422e-01,5.051582772751135053e+02,2.211369664259991638e-02
3.000000000000000000e+00,1.414213562373096422e-01,3.567291105132829898e+02,2.135893008925985118e-02
3.000000000000000000e+00,1.414213562373096422e-01,1.981854079680879579e+02,1.924329286111503209e-02
3.000000000000000000e+00,1.414213562373096422e-01,9.553417777122969028e+02,2.295853752814219426e-02
3.000000000000000000e+00,1.414213562373096422e-01,1.325271122644635034e+04,2.383029920576217389e-02
3.000000000000000000e+00,1.414213562373096422e-01,4.725629484258835146e+04,2.387886118305944036e-02
3.000000000000000000e+00,1.414213562373096422e-01,6.611828269593314644e+01,1.013047123810800407e-02
3.000000000000000000e+00,1.414213562373096422e-01,5.566923143162159704e+01,8.658839989566279385e-03
3.000000000000000000e+00,1.414213562373096422e-01,4.934238789561208250e+03,2.371646366235014708e-02
1.000000000000000000e+00,7.071067811865482111e-02,2.357501487748027557e+03,2.470006087723168597e-02
1.000000000000000000e+00,7.071067811865482111e-02,1.407501431973653361e+01,4.080006068624217157e-03
1.000000000000000000e+00,7.071067811865482111e-02,1.165245052834490025e+03,2.439316934866987349e-02
1.000000000000000000e+00,7.071067811865482111e-02,2.292097979350901085e+02,2.191502817966721126e-02
1.000000000000000000e+00,7.071067811865482111e-02,1.836679729277026854e+04,2.496150070268446722e-02
1.000000000000000000e+00,7.071067811865482111e-02,2.744000443234968429e+02,2.242308093228581600e-02
1.000000000000000000e+00,7.071067811865482111e-02,2.653455919728013214e+03,2.473351458519720131e-02
1.000000000000000000e+00,7.071067811865482111e-02,2.689960874254560252e+01,7.485235096267779144e-03
1.000000000000000000e+00,7.071067811865482111e-02,1.232293785767371119e+01,3.585550787799064113e-03
1.000000000000000000e+00,7.071067811865482111e-02,1.138934340463458206e+01,3.319895264871314342e-03
2.000000000000000000e+00,7.071067811865482111e-02,1.945719350620078458e+01,2.511890561992757148e-03
2.000000000000000000e+00,7.071067811865482111e-02,1.360129386496625784e+03,1.427131362241700410e-02
2.000000000000000000e+00,7.071067811865482111e-02,5.597955839349235612e+04,1.476446850173008737e-02
2.000000000000000000e+00,7.071067811865482111e-02,3.011396826525139545e+02,1.263828287759180546e-02
2.000000000000000000e+00,7.071067811865482111e-02,9.044397718811969753e+02,1.402357332379689132e-02
2.000000000000000000e+00,7.071067811865482111e-02,4.428879601551545875e+01,4.799282563668771581e-03
2.000000000000000000e+00,7.071067811865482111e-02,5.631909635568679278e+02,1.358736901086183939e-02
2.000000000000000000e+00,7.071067811865482111e-02,1.717799956784757853e+01,2.246316289496921598e-03
2.000000000000000000e+00,7.071067811865482111e-02,2.447433072510434067e+04,1.474838460827075648e-02
2.000000000000000000e+00,7.071067811865482111e-02,4.699563485770718398e+04,1.476207882995464113e-02
3.000000000000000000e+00,7.071067811865482111e-02,8.730428998232374624e+02,1.077427684693107665e-02
3.000000000000000000e+00,7.071067811865482111e-02,6.762213761205072842e+03,1.163985617514375417e-02
3.000000000000000000e+00,7.071067811865482111e-02,3.911455844467166753e+04,1.174428193610488683e-02
3.000000000000000000e+00,7.071067811865482111e-02,2.130093587281642442e+01,1.308147297046522535e-03
3.000000000000000000e+00,7.071067811865482111e-02,3.554943384203924506e+04,1.174209612235616214e-02
3.000000000000000000e+00,7.071067811865482111e-02,1.333147824524407099e+02,5.080477111227850624e-03
3.000000000000000000e+00,7.071067811865482111e-02,2.493046353344613522e+02,8.061405965544259783e-03
3.000000000000000000e+00,7.071067811865482111e-02,1.397159254168091707e+02,5.297668640000789513e-03
3.000000000000000000e+00,7.071067811865482111e-02,4.168937348600579895e+01,1.884287705515503989e-03
3.000000000000000000e+00,7.071067811865482111e-02,2.356766379687229573e+02,7.827717072828442590e-03
1.000000000000000000e+00,3.535533905932741056e-02,1.546430706218580724e+02,8.033487648403602258e-03
1.000000000000000000e+00,3.535533905932741056e-02,2.711847362576279252e+01,1.967515709641369081e-03
1.000000000000000000e+00,3.535533905932741056e-02,4.399173959171802380e+03,1.233926367151865454e-02
1.000000000000000000e+00,3.535533905932741056e-02,1.471669161506362570e+03,1.201952046563746490e-02
1.000000000000000000e+00,3.535533905932741056e-02,1.145954963575625243e+03,1.188295419914242416e-02
1.000000000000000000e+00,3.535533905932741056e-02,1.454085631075637153e+01,1.066346880685215643e-03
1.000000000000000000e+00,3.535533905932741056e-02,1.326242232627494033e+01,9.733086277977718703e-04
1.000000000000000000e+00,3.535533905932741056e-02,1.050576220891293246e+02,6.393846541644848669e-03
1.000000000000000000e+00,3.535533905932741056e-02,8.213688961749140205e+00,6.041466963249656364e-04
1.000000000000000000e+00,3.535533905932741056e-02,3.226249628915378480e+02,1.030854821821419048e-02
2.000000000000000000e+00,3.535533905932741056e-02,4.309376347261099340e+02,5.945542798892797243e-03
2.000000000000000000e+00,3.535533905932741056e-02,9.613491302906116687e+01,2.588195438145115840e-03
2.000000000000000000e+00,3.535533905932741056e-02,7.719799911036737683e+01,2.186168119448301129e-03
2.000000000000000000e+00,3.535533905932741056e-02,1.768839241776809786e+03,7.011244642348628958e-03
2.000000000000000000e+00,3.535533905932741056e-02,9.448234662891091773e+01,2.552349081125066064e-03
2.000000000000000000e+00,3.535533905932741056e-02,6.882702079124442207e+03,7.296884856816825832e-03
2.000000000000000000e+00,3.535533905932741056e-02,4.636895591226900137e+02,6.036624189067256625e-03
2.000000000000000000e+00,3.535533905932741056e-02,2.522420490947495963e+01,8.592659583353558488e-04
2.000000000000000000e+00,3.535533905932741056e-02,3.380999236116629447e+01,1.136171914560546274e-03
2.000000000000000000e+00,3.535533905932741056e-02,2.152668726778578900e+01,7.344350035166798650e-04
3.000000000000000000e+00,3.535533905932741056e-02,8.401288032554150575e+00,1.992313831744089677e-04
3.000000000000000000e+00,3.535533905932741056e-02,2.127805457532021319e+04,5.801849940192586527e-03
3.000000000000000000e+00,3.535533905932741056e-02,2.300164227500984993e+01,4.475483276256225730e-04
3.000000000000000000e+00,3.535533905932741056e-02,4.264906510002491814e+03,5.644311198646885346e-03
3.000000000000000000e+00,3.535533905932741056e-02,1.911905232368769930e+03,5.397707887670958292e-03
3.000000000000000000e+00,3.535533905932741056e-02,3.282604563881848776e+02,3.034669580954631879e-03
3.000000000000000000e+00,3.535533905932741056e-02,4.486696334410031704e+04,5.822476269170186181e-03
3.000000000000000000e+00,3.535533905932741056e-02,5.738035273950295050e+02,4.275015158736984559e-03
3.000000000000000000e+00,3.535533905932741056e-02,7.278686126060246124e+02,4.630585526022907086e-03
3.000000000000000000e+00,3.535533905932741056e-02,1.522733918752488307e+03,5.281495765132379096e-03
